{
    "page": 2,
    "per_page": 12,
    "photos": [
        {
            "id": 5379541,
            "width": 4480,
            "height": 6720,
            "url": "https://www.pexels.com/photo/cookies-on-a-plate-and-a-glass-of-milk-5379541/",
            "photographer": "Meraki Photos",
            "photographer_url": "https://www.pexels.com/@meraki-photos-3596636",
            "photographer_id": 3596636,
            "avg_color": "#B9AEA5",
            "src": {
                "original": "https://images.pexels.com/photos/5379541/pexels-photo-5379541.jpeg",
                "large2x": "https://images.pexels.com/photos/5379541/pexels-photo-5379541.jpeg?auto=compress\u0026cs=tinysrgb\u0026dpr=2\u0026h=650\u0026w=940",
                "large": "https://images.pexels.com/photos/5379541/pexels-photo-5379541.jpeg?auto=compress\u0026cs=tinysrgb\u0026h=650\u0026w=940",
                "medium": "https://images.pexels.com/photos/5379541/pexels-photo-5379541.jpeg?auto=compress\u0026cs=tinysrgb\u0026h=350",
                "small": "https://images.pexels.com/photos/5379541/pexels-photo-5379541.jpeg?auto=compress\u0026cs=tinysrgb\u0026h=130",
                "portrait": "https://images.pexels.com/photos/5379541/pexels-photo-5379541.jpeg?auto=compress\u0026cs=tinysrgb\u0026fit=crop\u0026h=1200\u0026w=800",
                "landscape": "https://images.pexels.com/photos/5379541/pexels-photo-5379541.jpeg?auto=compress\u0026cs=tinysrgb\u0026fit=crop\u0026h=627\u0026w=1200",
                "tiny": "https://images.pexels.com/photos/5379541/pexels-photo-5379541.jpeg?auto=compress\u0026cs=tinysrgb\u0026dpr=1\u0026fit=crop\u0026h=200\u0026w=280"
            },
            "liked": false
        },
        {
            "id": 5379548,
            "width": 6720,
            "height": 4480,
            "url": "https://www.pexels.com/photo/cookies-on-white-ceramic-plate-beside-a-glass-of-milk-5379548/",
            "photographer": "Meraki Photos",
            "photographer_url": "https://www.pexels.com/@meraki-photos-3596636",
            "photographer_id": 3596636,
            "avg_color": "#C8BDB3",
            "src": {
                "original": "https://images.pexels.com/photos/5379548/pexels-photo-5379548.jpeg",
                "large2x": "https://images.pexels.com/photos/5379548/pexels-photo-5379548.jpeg?auto=compress\u0026cs=tinysrgb\u0026dpr=2\u0026h=650\u0026w=940",
                "large": "https://images.pexels.com/photos/5379548/pexels-photo-5379548.jpeg?auto=compress\u0026cs=tinysrgb\u0026h=650\u0026w=940",
                "medium": "https://images.pexels.com/photos/5379548/pexels-photo-5379548.jpeg?auto=compress\u0026cs=tinysrgb\u0026h=350",
                "small": "https://images.pexels.com/photos/5379548/pexels-photo-5379548.jpeg?auto=compress\u0026cs=tinysrgb\u0026h=130",
                "portrait": "https://images.pexels.com/photos/5379548/pexels-photo-5379548.jpeg?auto=compress\u0026cs=tinysrgb\u0026fit=crop\u0026h=1200\u0026w=800",
                "landscape": "https://images.pexels.com/photos/5379548/pexels-photo-5379548.jpeg?auto=compress\u0026cs=tinysrgb\u0026fit=crop\u0026h=627\u0026w=1200",
                "tiny": "https://images.pexels.com/photos/5379548/pexels-photo-5379548.jpeg?auto=compress\u0026cs=tinysrgb\u0026dpr=1\u0026fit=crop\u0026h=200\u0026w=280"
            },
            "liked": false
        },
        {
            "id": 6996314,
            "width": 4840,
            "height": 3231,
            "url": "https://www.pexels.com/photo/brown-cookies-on-white-surface-6996314/",
            "photographer": "Pavel Danilyuk",
            "photographer_url": "https://www.pexels.com/@pavel-danilyuk",
            "photographer_id": 2297095,
            "avg_color": "#B29987",
            "src": {
                "original": "https://images.pexels.com/photos/6996314/pexels-photo-6996314.jpeg",
                "large2x": "https://images.pexels.com/photos/6996314/pexels-photo-6996314.jpeg?auto=compress\u0026cs=tinysrgb\u0026dpr=2\u0026h=650\u0026w=940",
                "large": "https://images.pexels.com/photos/6996314/pexels-photo-6996314.jpeg?auto=compress\u0026cs=tinysrgb\u0026h=650\u0026w=940",
                "medium": "https://images.pexels.com/photos/6996314/pexels-photo-6996314.jpeg?auto=compress\u0026cs=tinysrgb\u0026h=350",
                "small": "https://images.pexels.com/photos/6996314/pexels-photo-6996314.jpeg?auto=compress\u0026cs=tinysrgb\u0026h=130",
                "portrait": "https://images.pexels.com/photos/6996314/pexels-photo-6996314.jpeg?auto=compress\u0026cs=tinysrgb\u0026fit=crop\u0026h=1200\u0026w=800",
                "landscape": "https://images.pexels.com/photos/6996314/pexels-photo-6996314.jpeg?auto=compress\u0026cs=tinysrgb\u0026fit=crop\u0026h=627\u0026w=1200",
                "tiny": "https://images.pexels.com/photos/6996314/pexels-photo-6996314.jpeg?auto=compress\u0026cs=tinysrgb\u0026dpr=1\u0026fit=crop\u0026h=200\u0026w=280"
            },
            "liked": false
        },
        {
            "id": 6996327,
            "width": 3265,
            "height": 4891,
            "url": "https://www.pexels.com/photo/easter-kitchen-flour-cooking-6996327/",
            "photographer": "Pavel Danilyuk",
            "photographer_url": "https://www.pexels.com/@pavel-danilyuk",
            "photographer_id": 2297095,
            "avg_color": "#BDA28D",
            "src": {
                "original": "https://images.pexels.com/photos/6996327/pexels-photo-6996327.jpeg",
                "large2x": "https://images.pexels.com/photos/6996327/pexels-photo-6996327.jpeg?auto=compress\u0026cs=tinysrgb\u0026dpr=2\u0026h=650\u0026w=940",
                "large": "https://images.pexels.com/photos/6996327/pexels-photo-6996327.jpeg?auto=compress\u0026cs=tinysrgb\u0026h=650\u0026w=940",
                "medium": "https://images.pexels.com/photos/6996327/pexels-photo-6996327.jpeg?auto=compress\u0026cs=tinysrgb\u0026h=350",
                "small": "https://images.pexels.com/photos/6996327/pexels-photo-6996327.jpeg?auto=compress\u0026cs=tinysrgb\u0026h=130",
                "portrait": "https://images.pexels.com/photos/6996327/pexels-photo-6996327.jpeg?auto=compress\u0026cs=tinysrgb\u0026fit=crop\u0026h=1200\u0026w=800",
                "landscape": "https://images.pexels.com/photos/6996327/pexels-photo-6996327.jpeg?auto=compress\u0026cs=tinysrgb\u0026fit=crop\u0026h=627\u0026w=1200",
                "tiny": "https://images.pexels.com/photos/6996327/pexels-photo-6996327.jpeg?auto=compress\u0026cs=tinysrgb\u0026dpr=1\u0026fit=crop\u0026h=200\u0026w=280"
            },
            "liked": false
        },
        {
            "id": 6996333,
            "width": 3654,
            "height": 5473,
            "url": "https://www.pexels.com/photo/easter-kitchen-flour-cooking-6996333/",
            "photographer": "Pavel Danilyuk",
            "photographer_url": "https://www.pexels.com/@pavel-danilyuk",
            "photographer_id": 2297095,
            "avg_color": "#AD8E73",
            "src": {
                "original": "https://images.pexels.com/photos/6996333/pexels-photo-6996333.jpeg",
                "large2x": "https://images.pexels.com/photos/6996333/pexels-photo-6996333.jpeg?auto=compress\u0026cs=tinysrgb\u0026dpr=2\u0026h=650\u0026w=940",
                "large": "https://images.pexels.com/photos/6996333/pexels-photo-6996333.jpeg?auto=compress\u0026cs=tinysrgb\u0026h=650\u0026w=940",
                "medium": "https://images.pexels.com/photos/6996333/pexels-photo-6996333.jpeg?auto=compress\u0026cs=tinysrgb\u0026h=350",
                "small": "https://images.pexels.com/photos/6996333/pexels-photo-6996333.jpeg?auto=compress\u0026cs=tinysrgb\u0026h=130",
                "portrait": "https://images.pexels.com/photos/6996333/pexels-photo-6996333.jpeg?auto=compress\u0026cs=tinysrgb\u0026fit=crop\u0026h=1200\u0026w=800",
                "landscape": "https://images.pexels.com/photos/6996333/pexels-photo-6996333.jpeg?auto=compress\u0026cs=tinysrgb\u0026fit=crop\u0026h=627\u0026w=1200",
                "tiny": "https://images.pexels.com/photos/6996333/pexels-photo-6996333.jpeg?auto=compress\u0026cs=tinysrgb\u0026dpr=1\u0026fit=crop\u0026h=200\u0026w=280"
            },
            "liked": false
        },
        {
            "id": 6996299,
            "width": 5473,
            "height": 3654,
            "url": "https://www.pexels.com/photo/brown-wooden-rolling-pin-on-white-dough-6996299/",
            "photographer": "Pavel Danilyuk",
            "photographer_url": "https://www.pexels.com/@pavel-danilyuk",
            "photographer_id": 2297095,
            "avg_color": "#B8A598",
            "src": {
                "original": "https://images.pexels.com/photos/6996299/pexels-photo-6996299.jpeg",
                "large2x": "https://images.pexels.com/photos/6996299/pexels-photo-6996299.jpeg?auto=compress\u0026cs=tinysrgb\u0026dpr=2\u0026h=650\u0026w=940",
                "large": "https://images.pexels.com/photos/6996299/pexels-photo-6996299.jpeg?auto=compress\u0026cs=tinysrgb\u0026h=650\u0026w=940",
                "medium": "https://images.pexels.com/photos/6996299/pexels-photo-6996299.jpeg?auto=compress\u0026cs=tinysrgb\u0026h=350",
                "small": "https://images.pexels.com/photos/6996299/pexels-photo-6996299.jpeg?auto=compress\u0026cs=tinysrgb\u0026h=130",
                "portrait": "https://images.pexels.com/photos/6996299/pexels-photo-6996299.jpeg?auto=compress\u0026cs=tinysrgb\u0026fit=crop\u0026h=1200\u0026w=800",
                "landscape": "https://images.pexels.com/photos/6996299/pexels-photo-6996299.jpeg?auto=compress\u0026cs=tinysrgb\u0026fit=crop\u0026h=627\u0026w=1200",
                "tiny": "https://images.pexels.com/photos/6996299/pexels-photo-6996299.jpeg?auto=compress\u0026cs=tinysrgb\u0026dpr=1\u0026fit=crop\u0026h=200\u0026w=280"
            },
            "liked": false
        },
        {
            "id": 6996302,
            "width": 5473,
            "height": 3654,
            "url": "https://www.pexels.com/photo/person-holding-white-dough-with-white-powder-6996302/",
            "photographer": "Pavel Danilyuk",
            "photographer_url": "https://www.pexels.com/@pavel-danilyuk",
            "photographer_id": 2297095,
            "avg_color": "#AB8B71",
            "src": {
                "original": "https://images.pexels.com/photos/6996302/pexels-photo-6996302.jpeg",
                "large2x": "https://images.pexels.com/photos/6996302/pexels-photo-6996302.jpeg?auto=compress\u0026cs=tinysrgb\u0026dpr=2\u0026h=650\u0026w=940",
                "large": "https://images.pexels.com/photos/6996302/pexels-photo-6996302.jpeg?auto=compress\u0026cs=tinysrgb\u0026h=650\u0026w=940",
                "medium": "https://images.pexels.com/photos/6996302/pexels-photo-6996302.jpeg?auto=compress\u0026cs=tinysrgb\u0026h=350",
                "small": "https://images.pexels.com/photos/6996302/pexels-photo-6996302.jpeg?auto=compress\u0026cs=tinysrgb\u0026h=130",
                "portrait": "https://images.pexels.com/photos/6996302/pexels-photo-6996302.jpeg?auto=compress\u0026cs=tinysrgb\u0026fit=crop\u0026h=1200\u0026w=800",
                "landscape": "https://images.pexels.com/photos/6996302/pexels-photo-6996302.jpeg?auto=compress\u0026cs=tinysrgb\u0026fit=crop\u0026h=627\u0026w=1200",
                "tiny": "https://images.pexels.com/photos/6996302/pexels-photo-6996302.jpeg?auto=compress\u0026cs=tinysrgb\u0026dpr=1\u0026fit=crop\u0026h=200\u0026w=280"
            },
            "liked": false
        },
        {
            "id": 4262133,
            "width": 5472,
            "height": 3648,
            "url": "https://www.pexels.com/photo/white-ceramic-mug-beside-orange-fruit-4262133/",
            "photographer": "Nadin Trosh",
            "photographer_url": "https://www.pexels.com/@nadin-trosh-94635",
            "photographer_id": 94635,
            "avg_color": "#513A2B",
            "src": {
                "original": "https://images.pexels.com/photos/4262133/pexels-photo-4262133.jpeg",
                "large2x": "https://images.pexels.com/photos/4262133/pexels-photo-4262133.jpeg?auto=compress\u0026cs=tinysrgb\u0026dpr=2\u0026h=650\u0026w=940",
                "large": "https://images.pexels.com/photos/4262133/pexels-photo-4262133.jpeg?auto=compress\u0026cs=tinysrgb\u0026h=650\u0026w=940",
                "medium": "https://images.pexels.com/photos/4262133/pexels-photo-4262133.jpeg?auto=compress\u0026cs=tinysrgb\u0026h=350",
                "small": "https://images.pexels.com/photos/4262133/pexels-photo-4262133.jpeg?auto=compress\u0026cs=tinysrgb\u0026h=130",
                "portrait": "https://images.pexels.com/photos/4262133/pexels-photo-4262133.jpeg?auto=compress\u0026cs=tinysrgb\u0026fit=crop\u0026h=1200\u0026w=800",
                "landscape": "https://images.pexels.com/photos/4262133/pexels-photo-4262133.jpeg?auto=compress\u0026cs=tinysrgb\u0026fit=crop\u0026h=627\u0026w=1200",
                "tiny": "https://images.pexels.com/photos/4262133/pexels-photo-4262133.jpeg?auto=compress\u0026cs=tinysrgb\u0026dpr=1\u0026fit=crop\u0026h=200\u0026w=280"
            },
            "liked": false
        },
        {
            "id": 5878305,
            "width": 4979,
            "height": 3319,
            "url": "https://www.pexels.com/photo/food-flying-love-coffee-5878305/",
            "photographer": "Arun Thomas",
            "photographer_url": "https://www.pexels.com/@arunbabuthomas",
            "photographer_id": 249695,
            "avg_color": "#CDCECE",
            "src": {
                "original": "https://images.pexels.com/photos/5878305/pexels-photo-5878305.jpeg",
                "large2x": "https://images.pexels.com/photos/5878305/pexels-photo-5878305.jpeg?auto=compress\u0026cs=tinysrgb\u0026dpr=2\u0026h=650\u0026w=940",
                "large": "https://images.pexels.com/photos/5878305/pexels-photo-5878305.jpeg?auto=compress\u0026cs=tinysrgb\u0026h=650\u0026w=940",
                "medium": "https://images.pexels.com/photos/5878305/pexels-photo-5878305.jpeg?auto=compress\u0026cs=tinysrgb\u0026h=350",
                "small": "https://images.pexels.com/photos/5878305/pexels-photo-5878305.jpeg?auto=compress\u0026cs=tinysrgb\u0026h=130",
                "portrait": "https://images.pexels.com/photos/5878305/pexels-photo-5878305.jpeg?auto=compress\u0026cs=tinysrgb\u0026fit=crop\u0026h=1200\u0026w=800",
                "landscape": "https://images.pexels.com/photos/5878305/pexels-photo-5878305.jpeg?auto=compress\u0026cs=tinysrgb\u0026fit=crop\u0026h=627\u0026w=1200",
                "tiny": "https://images.pexels.com/photos/5878305/pexels-photo-5878305.jpeg?auto=compress\u0026cs=tinysrgb\u0026dpr=1\u0026fit=crop\u0026h=200\u0026w=280"
            },
            "liked": false
        },
        {
            "id": 6107466,
            "width": 5599,
            "height": 3679,
            "url": "https://www.pexels.com/photo/food-wood-holiday-trees-6107466/",
            "photographer": "Jill Wellington",
            "photographer_url": "https://www.pexels.com/@jill-wellington-1638660",
            "photographer_id": 1638660,
            "avg_color": "#B0A88B",
            "src": {
                "original": "https://images.pexels.com/photos/6107466/pexels-photo-6107466.jpeg",
                "large2x": "https://images.pexels.com/photos/6107466/pexels-photo-6107466.jpeg?auto=compress\u0026cs=tinysrgb\u0026dpr=2\u0026h=650\u0026w=940",
                "large": "https://images.pexels.com/photos/6107466/pexels-photo-6107466.jpeg?auto=compress\u0026cs=tinysrgb\u0026h=650\u0026w=940",
                "medium": "https://images.pexels.com/photos/6107466/pexels-photo-6107466.jpeg?auto=compress\u0026cs=tinysrgb\u0026h=350",
                "small": "https://images.pexels.com/photos/6107466/pexels-photo-6107466.jpeg?auto=compress\u0026cs=tinysrgb\u0026h=130",
                "portrait": "https://images.pexels.com/photos/6107466/pexels-photo-6107466.jpeg?auto=compress\u0026cs=tinysrgb\u0026fit=crop\u0026h=1200\u0026w=800",
                "landscape": "https://images.pexels.com/photos/6107466/pexels-photo-6107466.jpeg?auto=compress\u0026cs=tinysrgb\u0026fit=crop\u0026h=627\u0026w=1200",
                "tiny": "https://images.pexels.com/photos/6107466/pexels-photo-6107466.jpeg?auto=compress\u0026cs=tinysrgb\u0026dpr=1\u0026fit=crop\u0026h=200\u0026w=280"
            },
            "liked": false
        },
        {
            "id": 5996524,
            "width": 3101,
            "height": 4682,
            "url": "https://www.pexels.com/photo/food-wood-glass-breakfast-5996524/",
            "photographer": "Sofya Zakharova",
            "photographer_url": "https://www.pexels.com/@sofya-zakharova-7161771",
            "photographer_id": 7161771,
            "avg_color": "#CBBEAC",
            "src": {
                "original": "https://images.pexels.com/photos/5996524/pexels-photo-5996524.jpeg",
                "large2x": "https://images.pexels.com/photos/5996524/pexels-photo-5996524.jpeg?auto=compress\u0026cs=tinysrgb\u0026dpr=2\u0026h=650\u0026w=940",
                "large": "https://images.pexels.com/photos/5996524/pexels-photo-5996524.jpeg?auto=compress\u0026cs=tinysrgb\u0026h=650\u0026w=940",
                "medium": "https://images.pexels.com/photos/5996524/pexels-photo-5996524.jpeg?auto=compress\u0026cs=tinysrgb\u0026h=350",
                "small": "https://images.pexels.com/photos/5996524/pexels-photo-5996524.jpeg?auto=compress\u0026cs=tinysrgb\u0026h=130",
                "portrait": "https://images.pexels.com/photos/5996524/pexels-photo-5996524.jpeg?auto=compress\u0026cs=tinysrgb\u0026fit=crop\u0026h=1200\u0026w=800",
                "landscape": "https://images.pexels.com/photos/5996524/pexels-photo-5996524.jpeg?auto=compress\u0026cs=tinysrgb\u0026fit=crop\u0026h=627\u0026w=1200",
                "tiny": "https://images.pexels.com/photos/5996524/pexels-photo-5996524.jpeg?auto=compress\u0026cs=tinysrgb\u0026dpr=1\u0026fit=crop\u0026h=200\u0026w=280"
            },
            "liked": false
        },
        {
            "id": 5618031,
            "width": 6016,
            "height": 4016,
            "url": "https://www.pexels.com/photo/christmas-cookies-and-decorations-in-close-up-view-5618031/",
            "photographer": "Pavel Danilyuk",
            "photographer_url": "https://www.pexels.com/@pavel-danilyuk",
            "photographer_id": 2297095,
            "avg_color": "#7F6147",
            "src": {
                "original": "https://images.pexels.com/photos/5618031/pexels-photo-5618031.jpeg",
                "large2x": "https://images.pexels.com/photos/5618031/pexels-photo-5618031.jpeg?auto=compress\u0026cs=tinysrgb\u0026dpr=2\u0026h=650\u0026w=940",
                "large": "https://images.pexels.com/photos/5618031/pexels-photo-5618031.jpeg?auto=compress\u0026cs=tinysrgb\u0026h=650\u0026w=940",
                "medium": "https://images.pexels.com/photos/5618031/pexels-photo-5618031.jpeg?auto=compress\u0026cs=tinysrgb\u0026h=350",
                "small": "https://images.pexels.com/photos/5618031/pexels-photo-5618031.jpeg?auto=compress\u0026cs=tinysrgb\u0026h=130",
                "portrait": "https://images.pexels.com/photos/5618031/pexels-photo-5618031.jpeg?auto=compress\u0026cs=tinysrgb\u0026fit=crop\u0026h=1200\u0026w=800",
                "landscape": "https://images.pexels.com/photos/5618031/pexels-photo-5618031.jpeg?auto=compress\u0026cs=tinysrgb\u0026fit=crop\u0026h=627\u0026w=1200",
                "tiny": "https://images.pexels.com/photos/5618031/pexels-photo-5618031.jpeg?auto=compress\u0026cs=tinysrgb\u0026dpr=1\u0026fit=crop\u0026h=200\u0026w=280"
            },
            "liked": false
        }
    ],
    "total_results": 4610,
    "next_page": "https://api.pexels.com/v1/search/?page=3\u0026per_page=12\u0026query=cookies",
    "prev_page": "https://api.pexels.com/v1/search/?page=1\u0026per_page=12\u0026query=cookies"
}