{
    "page": 1,
    "per_page": 12,
    "photos": [
        {
            "id": 1740891,
            "width": 5616,
            "height": 3744,
            "url": "https://www.pexels.com/photo/brown-breads-on-wire-rack-1740891/",
            "photographer": "Lina Kivaka",
            "photographer_url": "https://www.pexels.com/@lina",
            "photographer_id": 593836,
            "avg_color": "#969391",
            "src": {
                "original": "https://images.pexels.com/photos/1740891/pexels-photo-1740891.jpeg",
                "large2x": "https://images.pexels.com/photos/1740891/pexels-photo-1740891.jpeg?auto=compress\u0026cs=tinysrgb\u0026dpr=2\u0026h=650\u0026w=940",
                "large": "https://images.pexels.com/photos/1740891/pexels-photo-1740891.jpeg?auto=compress\u0026cs=tinysrgb\u0026h=650\u0026w=940",
                "medium": "https://images.pexels.com/photos/1740891/pexels-photo-1740891.jpeg?auto=compress\u0026cs=tinysrgb\u0026h=350",
                "small": "https://images.pexels.com/photos/1740891/pexels-photo-1740891.jpeg?auto=compress\u0026cs=tinysrgb\u0026h=130",
                "portrait": "https://images.pexels.com/photos/1740891/pexels-photo-1740891.jpeg?auto=compress\u0026cs=tinysrgb\u0026fit=crop\u0026h=1200\u0026w=800",
                "landscape": "https://images.pexels.com/photos/1740891/pexels-photo-1740891.jpeg?auto=compress\u0026cs=tinysrgb\u0026fit=crop\u0026h=627\u0026w=1200",
                "tiny": "https://images.pexels.com/photos/1740891/pexels-photo-1740891.jpeg?auto=compress\u0026cs=tinysrgb\u0026dpr=1\u0026fit=crop\u0026h=200\u0026w=280"
            },
            "liked": false
        },
        {
            "id": 6061892,
            "width": 4000,
            "height": 6000,
            "url": "https://www.pexels.com/photo/a-person-putting-whipped-cream-on-top-of-the-cookies-6061892/",
            "photographer": "Nicole Michalou",
            "photographer_url": "https://www.pexels.com/@nicole-michalou",
            "photographer_id": 3674679,
            "avg_color": "#BFB2A6",
            "src": {
                "original": "https://images.pexels.com/photos/6061892/pexels-photo-6061892.jpeg",
                "large2x": "https://images.pexels.com/photos/6061892/pexels-photo-6061892.jpeg?auto=compress\u0026cs=tinysrgb\u0026dpr=2\u0026h=650\u0026w=940",
                "large": "https://images.pexels.com/photos/6061892/pexels-photo-6061892.jpeg?auto=compress\u0026cs=tinysrgb\u0026h=650\u0026w=940",
                "medium": "https://images.pexels.com/photos/6061892/pexels-photo-6061892.jpeg?auto=compress\u0026cs=tinysrgb\u0026h=350",
                "small": "https://images.pexels.com/photos/6061892/pexels-photo-6061892.jpeg?auto=compress\u0026cs=tinysrgb\u0026h=130",
                "portrait": "https://images.pexels.com/photos/6061892/pexels-photo-6061892.jpeg?auto=compress\u0026cs=tinysrgb\u0026fit=crop\u0026h=1200\u0026w=800",
                "landscape": "https://images.pexels.com/photos/6061892/pexels-photo-6061892.jpeg?auto=compress\u0026cs=tinysrgb\u0026fit=crop\u0026h=627\u0026w=1200",
                "tiny": "https://images.pexels.com/photos/6061892/pexels-photo-6061892.jpeg?auto=compress\u0026cs=tinysrgb\u0026dpr=1\u0026fit=crop\u0026h=200\u0026w=280"
            },
            "liked": false
        },
        {
            "id": 5584278,
            "width": 8256,
            "height": 5504,
            "url": "https://www.pexels.com/photo/brown-cookies-decorated-with-various-facial-expressions-5584278/",
            "photographer": "Daisy Anderson",
            "photographer_url": "https://www.pexels.com/@daisy-anderson",
            "photographer_id": 3674631,
            "avg_color": "#684735",
            "src": {
                "original": "https://images.pexels.com/photos/5584278/pexels-photo-5584278.jpeg",
                "large2x": "https://images.pexels.com/photos/5584278/pexels-photo-5584278.jpeg?auto=compress\u0026cs=tinysrgb\u0026dpr=2\u0026h=650\u0026w=940",
                "large": "https://images.pexels.com/photos/5584278/pexels-photo-5584278.jpeg?auto=compress\u0026cs=tinysrgb\u0026h=650\u0026w=940",
                "medium": "https://images.pexels.com/photos/5584278/pexels-photo-5584278.jpeg?auto=compress\u0026cs=tinysrgb\u0026h=350",
                "small": "https://images.pexels.com/photos/5584278/pexels-photo-5584278.jpeg?auto=compress\u0026cs=tinysrgb\u0026h=130",
                "portrait": "https://images.pexels.com/photos/5584278/pexels-photo-5584278.jpeg?auto=compress\u0026cs=tinysrgb\u0026fit=crop\u0026h=1200\u0026w=800",
                "landscape": "https://images.pexels.com/photos/5584278/pexels-photo-5584278.jpeg?auto=compress\u0026cs=tinysrgb\u0026fit=crop\u0026h=627\u0026w=1200",
                "tiny": "https://images.pexels.com/photos/5584278/pexels-photo-5584278.jpeg?auto=compress\u0026cs=tinysrgb\u0026dpr=1\u0026fit=crop\u0026h=200\u0026w=280"
            },
            "liked": false
        },
        {
            "id": 6061573,
            "width": 6000,
            "height": 4000,
            "url": "https://www.pexels.com/photo/person-putting-christmas-tree-shaped-cookies-on-a-tray-6061573/",
            "photographer": "Nicole Michalou",
            "photographer_url": "https://www.pexels.com/@nicole-michalou",
            "photographer_id": 3674679,
            "avg_color": "#B39581",
            "src": {
                "original": "https://images.pexels.com/photos/6061573/pexels-photo-6061573.jpeg",
                "large2x": "https://images.pexels.com/photos/6061573/pexels-photo-6061573.jpeg?auto=compress\u0026cs=tinysrgb\u0026dpr=2\u0026h=650\u0026w=940",
                "large": "https://images.pexels.com/photos/6061573/pexels-photo-6061573.jpeg?auto=compress\u0026cs=tinysrgb\u0026h=650\u0026w=940",
                "medium": "https://images.pexels.com/photos/6061573/pexels-photo-6061573.jpeg?auto=compress\u0026cs=tinysrgb\u0026h=350",
                "small": "https://images.pexels.com/photos/6061573/pexels-photo-6061573.jpeg?auto=compress\u0026cs=tinysrgb\u0026h=130",
                "portrait": "https://images.pexels.com/photos/6061573/pexels-photo-6061573.jpeg?auto=compress\u0026cs=tinysrgb\u0026fit=crop\u0026h=1200\u0026w=800",
                "landscape": "https://images.pexels.com/photos/6061573/pexels-photo-6061573.jpeg?auto=compress\u0026cs=tinysrgb\u0026fit=crop\u0026h=627\u0026w=1200",
                "tiny": "https://images.pexels.com/photos/6061573/pexels-photo-6061573.jpeg?auto=compress\u0026cs=tinysrgb\u0026dpr=1\u0026fit=crop\u0026h=200\u0026w=280"
            },
            "liked": false
        },
        {
            "id": 6073718,
            "width": 3000,
            "height": 2000,
            "url": "https://www.pexels.com/photo/person-preparing-dough-for-baking-6073718/",
            "photographer": "Polina Tankilevitch",
            "photographer_url": "https://www.pexels.com/@polina-tankilevitch",
            "photographer_id": 2104565,
            "avg_color": "#C6C3B9",
            "src": {
                "original": "https://images.pexels.com/photos/6073718/pexels-photo-6073718.jpeg",
                "large2x": "https://images.pexels.com/photos/6073718/pexels-photo-6073718.jpeg?auto=compress\u0026cs=tinysrgb\u0026dpr=2\u0026h=650\u0026w=940",
                "large": "https://images.pexels.com/photos/6073718/pexels-photo-6073718.jpeg?auto=compress\u0026cs=tinysrgb\u0026h=650\u0026w=940",
                "medium": "https://images.pexels.com/photos/6073718/pexels-photo-6073718.jpeg?auto=compress\u0026cs=tinysrgb\u0026h=350",
                "small": "https://images.pexels.com/photos/6073718/pexels-photo-6073718.jpeg?auto=compress\u0026cs=tinysrgb\u0026h=130",
                "portrait": "https://images.pexels.com/photos/6073718/pexels-photo-6073718.jpeg?auto=compress\u0026cs=tinysrgb\u0026fit=crop\u0026h=1200\u0026w=800",
                "landscape": "https://images.pexels.com/photos/6073718/pexels-photo-6073718.jpeg?auto=compress\u0026cs=tinysrgb\u0026fit=crop\u0026h=627\u0026w=1200",
                "tiny": "https://images.pexels.com/photos/6073718/pexels-photo-6073718.jpeg?auto=compress\u0026cs=tinysrgb\u0026dpr=1\u0026fit=crop\u0026h=200\u0026w=280"
            },
            "liked": false
        },
        {
            "id": 6061742,
            "width": 6000,
            "height": 3963,
            "url": "https://www.pexels.com/photo/person-using-a-cookie-cutter-6061742/",
            "photographer": "Nicole Michalou",
            "photographer_url": "https://www.pexels.com/@nicole-michalou",
            "photographer_id": 3674679,
            "avg_color": "#CBB2A1",
            "src": {
                "original": "https://images.pexels.com/photos/6061742/pexels-photo-6061742.jpeg",
                "large2x": "https://images.pexels.com/photos/6061742/pexels-photo-6061742.jpeg?auto=compress\u0026cs=tinysrgb\u0026dpr=2\u0026h=650\u0026w=940",
                "large": "https://images.pexels.com/photos/6061742/pexels-photo-6061742.jpeg?auto=compress\u0026cs=tinysrgb\u0026h=650\u0026w=940",
                "medium": "https://images.pexels.com/photos/6061742/pexels-photo-6061742.jpeg?auto=compress\u0026cs=tinysrgb\u0026h=350",
                "small": "https://images.pexels.com/photos/6061742/pexels-photo-6061742.jpeg?auto=compress\u0026cs=tinysrgb\u0026h=130",
                "portrait": "https://images.pexels.com/photos/6061742/pexels-photo-6061742.jpeg?auto=compress\u0026cs=tinysrgb\u0026fit=crop\u0026h=1200\u0026w=800",
                "landscape": "https://images.pexels.com/photos/6061742/pexels-photo-6061742.jpeg?auto=compress\u0026cs=tinysrgb\u0026fit=crop\u0026h=627\u0026w=1200",
                "tiny": "https://images.pexels.com/photos/6061742/pexels-photo-6061742.jpeg?auto=compress\u0026cs=tinysrgb\u0026dpr=1\u0026fit=crop\u0026h=200\u0026w=280"
            },
            "liked": false
        },
        {
            "id": 6062022,
            "width": 6000,
            "height": 4000,
            "url": "https://www.pexels.com/photo/person-serving-a-platter-of-christmas-tree-shaped-cookies-6062022/",
            "photographer": "Nicole Michalou",
            "photographer_url": "https://www.pexels.com/@nicole-michalou",
            "photographer_id": 3674679,
            "avg_color": "#75461F",
            "src": {
                "original": "https://images.pexels.com/photos/6062022/pexels-photo-6062022.jpeg",
                "large2x": "https://images.pexels.com/photos/6062022/pexels-photo-6062022.jpeg?auto=compress\u0026cs=tinysrgb\u0026dpr=2\u0026h=650\u0026w=940",
                "large": "https://images.pexels.com/photos/6062022/pexels-photo-6062022.jpeg?auto=compress\u0026cs=tinysrgb\u0026h=650\u0026w=940",
                "medium": "https://images.pexels.com/photos/6062022/pexels-photo-6062022.jpeg?auto=compress\u0026cs=tinysrgb\u0026h=350",
                "small": "https://images.pexels.com/photos/6062022/pexels-photo-6062022.jpeg?auto=compress\u0026cs=tinysrgb\u0026h=130",
                "portrait": "https://images.pexels.com/photos/6062022/pexels-photo-6062022.jpeg?auto=compress\u0026cs=tinysrgb\u0026fit=crop\u0026h=1200\u0026w=800",
                "landscape": "https://images.pexels.com/photos/6062022/pexels-photo-6062022.jpeg?auto=compress\u0026cs=tinysrgb\u0026fit=crop\u0026h=627\u0026w=1200",
                "tiny": "https://images.pexels.com/photos/6062022/pexels-photo-6062022.jpeg?auto=compress\u0026cs=tinysrgb\u0026dpr=1\u0026fit=crop\u0026h=200\u0026w=280"
            },
            "liked": false
        },
        {
            "id": 6102150,
            "width": 5040,
            "height": 3360,
            "url": "https://www.pexels.com/photo/homemade-festive-cookies-in-box-on-table-6102150/",
            "photographer": "Laura James",
            "photographer_url": "https://www.pexels.com/@laura-james",
            "photographer_id": 6927799,
            "avg_color": "#A93F42",
            "src": {
                "original": "https://images.pexels.com/photos/6102150/pexels-photo-6102150.jpeg",
                "large2x": "https://images.pexels.com/photos/6102150/pexels-photo-6102150.jpeg?auto=compress\u0026cs=tinysrgb\u0026dpr=2\u0026h=650\u0026w=940",
                "large": "https://images.pexels.com/photos/6102150/pexels-photo-6102150.jpeg?auto=compress\u0026cs=tinysrgb\u0026h=650\u0026w=940",
                "medium": "https://images.pexels.com/photos/6102150/pexels-photo-6102150.jpeg?auto=compress\u0026cs=tinysrgb\u0026h=350",
                "small": "https://images.pexels.com/photos/6102150/pexels-photo-6102150.jpeg?auto=compress\u0026cs=tinysrgb\u0026h=130",
                "portrait": "https://images.pexels.com/photos/6102150/pexels-photo-6102150.jpeg?auto=compress\u0026cs=tinysrgb\u0026fit=crop\u0026h=1200\u0026w=800",
                "landscape": "https://images.pexels.com/photos/6102150/pexels-photo-6102150.jpeg?auto=compress\u0026cs=tinysrgb\u0026fit=crop\u0026h=627\u0026w=1200",
                "tiny": "https://images.pexels.com/photos/6102150/pexels-photo-6102150.jpeg?auto=compress\u0026cs=tinysrgb\u0026dpr=1\u0026fit=crop\u0026h=200\u0026w=280"
            },
            "liked": false
        },
        {
            "id": 5634038,
            "width": 4115,
            "height": 6172,
            "url": "https://www.pexels.com/photo/box-of-halloween-cookies-5634038/",
            "photographer": "Monstera",
            "photographer_url": "https://www.pexels.com/@gabby-k",
            "photographer_id": 3372733,
            "avg_color": "#84624C",
            "src": {
                "original": "https://images.pexels.com/photos/5634038/pexels-photo-5634038.jpeg",
                "large2x": "https://images.pexels.com/photos/5634038/pexels-photo-5634038.jpeg?auto=compress\u0026cs=tinysrgb\u0026dpr=2\u0026h=650\u0026w=940",
                "large": "https://images.pexels.com/photos/5634038/pexels-photo-5634038.jpeg?auto=compress\u0026cs=tinysrgb\u0026h=650\u0026w=940",
                "medium": "https://images.pexels.com/photos/5634038/pexels-photo-5634038.jpeg?auto=compress\u0026cs=tinysrgb\u0026h=350",
                "small": "https://images.pexels.com/photos/5634038/pexels-photo-5634038.jpeg?auto=compress\u0026cs=tinysrgb\u0026h=130",
                "portrait": "https://images.pexels.com/photos/5634038/pexels-photo-5634038.jpeg?auto=compress\u0026cs=tinysrgb\u0026fit=crop\u0026h=1200\u0026w=800",
                "landscape": "https://images.pexels.com/photos/5634038/pexels-photo-5634038.jpeg?auto=compress\u0026cs=tinysrgb\u0026fit=crop\u0026h=627\u0026w=1200",
                "tiny": "https://images.pexels.com/photos/5634038/pexels-photo-5634038.jpeg?auto=compress\u0026cs=tinysrgb\u0026dpr=1\u0026fit=crop\u0026h=200\u0026w=280"
            },
            "liked": false
        },
        {
            "id": 5791973,
            "width": 6016,
            "height": 4016,
            "url": "https://www.pexels.com/photo/food-wood-vacation-winter-5791973/",
            "photographer": "Olya Kobruseva",
            "photographer_url": "https://www.pexels.com/@olyakobruseva",
            "photographer_id": 2946790,
            "avg_color": "#A69C95",
            "src": {
                "original": "https://images.pexels.com/photos/5791973/pexels-photo-5791973.jpeg",
                "large2x": "https://images.pexels.com/photos/5791973/pexels-photo-5791973.jpeg?auto=compress\u0026cs=tinysrgb\u0026dpr=2\u0026h=650\u0026w=940",
                "large": "https://images.pexels.com/photos/5791973/pexels-photo-5791973.jpeg?auto=compress\u0026cs=tinysrgb\u0026h=650\u0026w=940",
                "medium": "https://images.pexels.com/photos/5791973/pexels-photo-5791973.jpeg?auto=compress\u0026cs=tinysrgb\u0026h=350",
                "small": "https://images.pexels.com/photos/5791973/pexels-photo-5791973.jpeg?auto=compress\u0026cs=tinysrgb\u0026h=130",
                "portrait": "https://images.pexels.com/photos/5791973/pexels-photo-5791973.jpeg?auto=compress\u0026cs=tinysrgb\u0026fit=crop\u0026h=1200\u0026w=800",
                "landscape": "https://images.pexels.com/photos/5791973/pexels-photo-5791973.jpeg?auto=compress\u0026cs=tinysrgb\u0026fit=crop\u0026h=627\u0026w=1200",
                "tiny": "https://images.pexels.com/photos/5791973/pexels-photo-5791973.jpeg?auto=compress\u0026cs=tinysrgb\u0026dpr=1\u0026fit=crop\u0026h=200\u0026w=280"
            },
            "liked": false
        },
        {
            "id": 6119145,
            "width": 4240,
            "height": 2832,
            "url": "https://www.pexels.com/photo/brown-and-white-bear-shaped-cookies-6119145/",
            "photographer": "Taryn Elliott",
            "photographer_url": "https://www.pexels.com/@taryn-elliott",
            "photographer_id": 1522664,
            "avg_color": "#94735C",
            "src": {
                "original": "https://images.pexels.com/photos/6119145/pexels-photo-6119145.jpeg",
                "large2x": "https://images.pexels.com/photos/6119145/pexels-photo-6119145.jpeg?auto=compress\u0026cs=tinysrgb\u0026dpr=2\u0026h=650\u0026w=940",
                "large": "https://images.pexels.com/photos/6119145/pexels-photo-6119145.jpeg?auto=compress\u0026cs=tinysrgb\u0026h=650\u0026w=940",
                "medium": "https://images.pexels.com/photos/6119145/pexels-photo-6119145.jpeg?auto=compress\u0026cs=tinysrgb\u0026h=350",
                "small": "https://images.pexels.com/photos/6119145/pexels-photo-6119145.jpeg?auto=compress\u0026cs=tinysrgb\u0026h=130",
                "portrait": "https://images.pexels.com/photos/6119145/pexels-photo-6119145.jpeg?auto=compress\u0026cs=tinysrgb\u0026fit=crop\u0026h=1200\u0026w=800",
                "landscape": "https://images.pexels.com/photos/6119145/pexels-photo-6119145.jpeg?auto=compress\u0026cs=tinysrgb\u0026fit=crop\u0026h=627\u0026w=1200",
                "tiny": "https://images.pexels.com/photos/6119145/pexels-photo-6119145.jpeg?auto=compress\u0026cs=tinysrgb\u0026dpr=1\u0026fit=crop\u0026h=200\u0026w=280"
            },
            "liked": false
        },
        {
            "id": 6119147,
            "width": 4240,
            "height": 2832,
            "url": "https://www.pexels.com/photo/brown-and-white-floral-textile-6119147/",
            "photographer": "Taryn Elliott",
            "photographer_url": "https://www.pexels.com/@taryn-elliott",
            "photographer_id": 1522664,
            "avg_color": "#8F7262",
            "src": {
                "original": "https://images.pexels.com/photos/6119147/pexels-photo-6119147.jpeg",
                "large2x": "https://images.pexels.com/photos/6119147/pexels-photo-6119147.jpeg?auto=compress\u0026cs=tinysrgb\u0026dpr=2\u0026h=650\u0026w=940",
                "large": "https://images.pexels.com/photos/6119147/pexels-photo-6119147.jpeg?auto=compress\u0026cs=tinysrgb\u0026h=650\u0026w=940",
                "medium": "https://images.pexels.com/photos/6119147/pexels-photo-6119147.jpeg?auto=compress\u0026cs=tinysrgb\u0026h=350",
                "small": "https://images.pexels.com/photos/6119147/pexels-photo-6119147.jpeg?auto=compress\u0026cs=tinysrgb\u0026h=130",
                "portrait": "https://images.pexels.com/photos/6119147/pexels-photo-6119147.jpeg?auto=compress\u0026cs=tinysrgb\u0026fit=crop\u0026h=1200\u0026w=800",
                "landscape": "https://images.pexels.com/photos/6119147/pexels-photo-6119147.jpeg?auto=compress\u0026cs=tinysrgb\u0026fit=crop\u0026h=627\u0026w=1200",
                "tiny": "https://images.pexels.com/photos/6119147/pexels-photo-6119147.jpeg?auto=compress\u0026cs=tinysrgb\u0026dpr=1\u0026fit=crop\u0026h=200\u0026w=280"
            },
            "liked": false
        }
    ],
    "total_results": 4610,
    "next_page": "https://api.pexels.com/v1/search/?page=2\u0026per_page=12\u0026query=cookies"
}