{
    "page": 6,
    "per_page": 12,
    "photos": [
        {
            "id": 6588384,
            "width": 3744,
            "height": 5616,
            "url": "https://www.pexels.com/photo/foods-over-a-wooden-tray-6588384/",
            "photographer": "ROMAN ODINTSOV",
            "photographer_url": "https://www.pexels.com/@roman-odintsov",
            "photographer_id": 2678846,
            "avg_color": "#9D7866",
            "src": {
                "original": "https://images.pexels.com/photos/6588384/pexels-photo-6588384.jpeg",
                "large2x": "https://images.pexels.com/photos/6588384/pexels-photo-6588384.jpeg?auto=compress\u0026cs=tinysrgb\u0026dpr=2\u0026h=650\u0026w=940",
                "large": "https://images.pexels.com/photos/6588384/pexels-photo-6588384.jpeg?auto=compress\u0026cs=tinysrgb\u0026h=650\u0026w=940",
                "medium": "https://images.pexels.com/photos/6588384/pexels-photo-6588384.jpeg?auto=compress\u0026cs=tinysrgb\u0026h=350",
                "small": "https://images.pexels.com/photos/6588384/pexels-photo-6588384.jpeg?auto=compress\u0026cs=tinysrgb\u0026h=130",
                "portrait": "https://images.pexels.com/photos/6588384/pexels-photo-6588384.jpeg?auto=compress\u0026cs=tinysrgb\u0026fit=crop\u0026h=1200\u0026w=800",
                "landscape": "https://images.pexels.com/photos/6588384/pexels-photo-6588384.jpeg?auto=compress\u0026cs=tinysrgb\u0026fit=crop\u0026h=627\u0026w=1200",
                "tiny": "https://images.pexels.com/photos/6588384/pexels-photo-6588384.jpeg?auto=compress\u0026cs=tinysrgb\u0026dpr=1\u0026fit=crop\u0026h=200\u0026w=280"
            },
            "liked": false
        },
        {
            "id": 9304020,
            "width": 3285,
            "height": 4106,
            "url": "https://www.pexels.com/photo/bread-butter-and-buns-9304020/",
            "photographer": "Kaique Lopes",
            "photographer_url": "https://www.pexels.com/@kaique-lopes-3899395",
            "photographer_id": 3899395,
            "avg_color": "#927764",
            "src": {
                "original": "https://images.pexels.com/photos/9304020/pexels-photo-9304020.jpeg",
                "large2x": "https://images.pexels.com/photos/9304020/pexels-photo-9304020.jpeg?auto=compress\u0026cs=tinysrgb\u0026dpr=2\u0026h=650\u0026w=940",
                "large": "https://images.pexels.com/photos/9304020/pexels-photo-9304020.jpeg?auto=compress\u0026cs=tinysrgb\u0026h=650\u0026w=940",
                "medium": "https://images.pexels.com/photos/9304020/pexels-photo-9304020.jpeg?auto=compress\u0026cs=tinysrgb\u0026h=350",
                "small": "https://images.pexels.com/photos/9304020/pexels-photo-9304020.jpeg?auto=compress\u0026cs=tinysrgb\u0026h=130",
                "portrait": "https://images.pexels.com/photos/9304020/pexels-photo-9304020.jpeg?auto=compress\u0026cs=tinysrgb\u0026fit=crop\u0026h=1200\u0026w=800",
                "landscape": "https://images.pexels.com/photos/9304020/pexels-photo-9304020.jpeg?auto=compress\u0026cs=tinysrgb\u0026fit=crop\u0026h=627\u0026w=1200",
                "tiny": "https://images.pexels.com/photos/9304020/pexels-photo-9304020.jpeg?auto=compress\u0026cs=tinysrgb\u0026dpr=1\u0026fit=crop\u0026h=200\u0026w=280"
            },
            "liked": false
        },
        {
            "id": 429805,
            "width": 3648,
            "height": 5472,
            "url": "https://www.pexels.com/photo/macaroons-served-on-plate-429805/",
            "photographer": "Brigitte Tohm",
            "photographer_url": "https://www.pexels.com/@brigitte-tohm-36757",
            "photographer_id": 36757,
            "avg_color": "#947D6F",
            "src": {
                "original": "https://images.pexels.com/photos/429805/pexels-photo-429805.jpeg",
                "large2x": "https://images.pexels.com/photos/429805/pexels-photo-429805.jpeg?auto=compress\u0026cs=tinysrgb\u0026dpr=2\u0026h=650\u0026w=940",
                "large": "https://images.pexels.com/photos/429805/pexels-photo-429805.jpeg?auto=compress\u0026cs=tinysrgb\u0026h=650\u0026w=940",
                "medium": "https://images.pexels.com/photos/429805/pexels-photo-429805.jpeg?auto=compress\u0026cs=tinysrgb\u0026h=350",
                "small": "https://images.pexels.com/photos/429805/pexels-photo-429805.jpeg?auto=compress\u0026cs=tinysrgb\u0026h=130",
                "portrait": "https://images.pexels.com/photos/429805/pexels-photo-429805.jpeg?auto=compress\u0026cs=tinysrgb\u0026fit=crop\u0026h=1200\u0026w=800",
                "landscape": "https://images.pexels.com/photos/429805/pexels-photo-429805.jpeg?auto=compress\u0026cs=tinysrgb\u0026fit=crop\u0026h=627\u0026w=1200",
                "tiny": "https://images.pexels.com/photos/429805/pexels-photo-429805.jpeg?auto=compress\u0026cs=tinysrgb\u0026dpr=1\u0026fit=crop\u0026h=200\u0026w=280"
            },
            "liked": false
        },
        {
            "id": 752499,
            "width": 4928,
            "height": 3264,
            "url": "https://www.pexels.com/photo/variety-of-assorted-designed-cookies-752499/",
            "photographer": "Jonathan Meyer",
            "photographer_url": "https://www.pexels.com/@jmeyer1220",
            "photographer_id": 196919,
            "avg_color": "#7E6855",
            "src": {
                "original": "https://images.pexels.com/photos/752499/pexels-photo-752499.jpeg",
                "large2x": "https://images.pexels.com/photos/752499/pexels-photo-752499.jpeg?auto=compress\u0026cs=tinysrgb\u0026dpr=2\u0026h=650\u0026w=940",
                "large": "https://images.pexels.com/photos/752499/pexels-photo-752499.jpeg?auto=compress\u0026cs=tinysrgb\u0026h=650\u0026w=940",
                "medium": "https://images.pexels.com/photos/752499/pexels-photo-752499.jpeg?auto=compress\u0026cs=tinysrgb\u0026h=350",
                "small": "https://images.pexels.com/photos/752499/pexels-photo-752499.jpeg?auto=compress\u0026cs=tinysrgb\u0026h=130",
                "portrait": "https://images.pexels.com/photos/752499/pexels-photo-752499.jpeg?auto=compress\u0026cs=tinysrgb\u0026fit=crop\u0026h=1200\u0026w=800",
                "landscape": "https://images.pexels.com/photos/752499/pexels-photo-752499.jpeg?auto=compress\u0026cs=tinysrgb\u0026fit=crop\u0026h=627\u0026w=1200",
                "tiny": "https://images.pexels.com/photos/752499/pexels-photo-752499.jpeg?auto=compress\u0026cs=tinysrgb\u0026dpr=1\u0026fit=crop\u0026h=200\u0026w=280"
            },
            "liked": false
        },
        {
            "id": 6588374,
            "width": 5616,
            "height": 3744,
            "url": "https://www.pexels.com/photo/food-on-wooden-tray-6588374/",
            "photographer": "ROMAN ODINTSOV",
            "photographer_url": "https://www.pexels.com/@roman-odintsov",
            "photographer_id": 2678846,
            "avg_color": "#9B7D6E",
            "src": {
                "original": "https://images.pexels.com/photos/6588374/pexels-photo-6588374.jpeg",
                "large2x": "https://images.pexels.com/photos/6588374/pexels-photo-6588374.jpeg?auto=compress\u0026cs=tinysrgb\u0026dpr=2\u0026h=650\u0026w=940",
                "large": "https://images.pexels.com/photos/6588374/pexels-photo-6588374.jpeg?auto=compress\u0026cs=tinysrgb\u0026h=650\u0026w=940",
                "medium": "https://images.pexels.com/photos/6588374/pexels-photo-6588374.jpeg?auto=compress\u0026cs=tinysrgb\u0026h=350",
                "small": "https://images.pexels.com/photos/6588374/pexels-photo-6588374.jpeg?auto=compress\u0026cs=tinysrgb\u0026h=130",
                "portrait": "https://images.pexels.com/photos/6588374/pexels-photo-6588374.jpeg?auto=compress\u0026cs=tinysrgb\u0026fit=crop\u0026h=1200\u0026w=800",
                "landscape": "https://images.pexels.com/photos/6588374/pexels-photo-6588374.jpeg?auto=compress\u0026cs=tinysrgb\u0026fit=crop\u0026h=627\u0026w=1200",
                "tiny": "https://images.pexels.com/photos/6588374/pexels-photo-6588374.jpeg?auto=compress\u0026cs=tinysrgb\u0026dpr=1\u0026fit=crop\u0026h=200\u0026w=280"
            },
            "liked": false
        },
        {
            "id": 1325467,
            "width": 5295,
            "height": 3376,
            "url": "https://www.pexels.com/photo/baked-cookies-and-glass-of-milk-1325467/",
            "photographer": "Suzy Hazelwood",
            "photographer_url": "https://www.pexels.com/@suzyhazelwood",
            "photographer_id": 353287,
            "avg_color": "#9A9FAD",
            "src": {
                "original": "https://images.pexels.com/photos/1325467/pexels-photo-1325467.jpeg",
                "large2x": "https://images.pexels.com/photos/1325467/pexels-photo-1325467.jpeg?auto=compress\u0026cs=tinysrgb\u0026dpr=2\u0026h=650\u0026w=940",
                "large": "https://images.pexels.com/photos/1325467/pexels-photo-1325467.jpeg?auto=compress\u0026cs=tinysrgb\u0026h=650\u0026w=940",
                "medium": "https://images.pexels.com/photos/1325467/pexels-photo-1325467.jpeg?auto=compress\u0026cs=tinysrgb\u0026h=350",
                "small": "https://images.pexels.com/photos/1325467/pexels-photo-1325467.jpeg?auto=compress\u0026cs=tinysrgb\u0026h=130",
                "portrait": "https://images.pexels.com/photos/1325467/pexels-photo-1325467.jpeg?auto=compress\u0026cs=tinysrgb\u0026fit=crop\u0026h=1200\u0026w=800",
                "landscape": "https://images.pexels.com/photos/1325467/pexels-photo-1325467.jpeg?auto=compress\u0026cs=tinysrgb\u0026fit=crop\u0026h=627\u0026w=1200",
                "tiny": "https://images.pexels.com/photos/1325467/pexels-photo-1325467.jpeg?auto=compress\u0026cs=tinysrgb\u0026dpr=1\u0026fit=crop\u0026h=200\u0026w=280"
            },
            "liked": false
        },
        {
            "id": 1546890,
            "width": 5472,
            "height": 3648,
            "url": "https://www.pexels.com/photo/selective-focus-photography-of-baked-cookies-with-gray-stainless-steel-tong-1546890/",
            "photographer": "Josh Sorenson",
            "photographer_url": "https://www.pexels.com/@joshsorenson",
            "photographer_id": 11929,
            "avg_color": "#7F5634",
            "src": {
                "original": "https://images.pexels.com/photos/1546890/pexels-photo-1546890.jpeg",
                "large2x": "https://images.pexels.com/photos/1546890/pexels-photo-1546890.jpeg?auto=compress\u0026cs=tinysrgb\u0026dpr=2\u0026h=650\u0026w=940",
                "large": "https://images.pexels.com/photos/1546890/pexels-photo-1546890.jpeg?auto=compress\u0026cs=tinysrgb\u0026h=650\u0026w=940",
                "medium": "https://images.pexels.com/photos/1546890/pexels-photo-1546890.jpeg?auto=compress\u0026cs=tinysrgb\u0026h=350",
                "small": "https://images.pexels.com/photos/1546890/pexels-photo-1546890.jpeg?auto=compress\u0026cs=tinysrgb\u0026h=130",
                "portrait": "https://images.pexels.com/photos/1546890/pexels-photo-1546890.jpeg?auto=compress\u0026cs=tinysrgb\u0026fit=crop\u0026h=1200\u0026w=800",
                "landscape": "https://images.pexels.com/photos/1546890/pexels-photo-1546890.jpeg?auto=compress\u0026cs=tinysrgb\u0026fit=crop\u0026h=627\u0026w=1200",
                "tiny": "https://images.pexels.com/photos/1546890/pexels-photo-1546890.jpeg?auto=compress\u0026cs=tinysrgb\u0026dpr=1\u0026fit=crop\u0026h=200\u0026w=280"
            },
            "liked": false
        },
        {
            "id": 298217,
            "width": 5184,
            "height": 3456,
            "url": "https://www.pexels.com/photo/selective-photo-of-cookies-on-container-298217/",
            "photographer": "Leigh Patrick",
            "photographer_url": "https://www.pexels.com/@leigh-patrick-14477",
            "photographer_id": 14477,
            "avg_color": "#9E6535",
            "src": {
                "original": "https://images.pexels.com/photos/298217/pexels-photo-298217.jpeg",
                "large2x": "https://images.pexels.com/photos/298217/pexels-photo-298217.jpeg?auto=compress\u0026cs=tinysrgb\u0026dpr=2\u0026h=650\u0026w=940",
                "large": "https://images.pexels.com/photos/298217/pexels-photo-298217.jpeg?auto=compress\u0026cs=tinysrgb\u0026h=650\u0026w=940",
                "medium": "https://images.pexels.com/photos/298217/pexels-photo-298217.jpeg?auto=compress\u0026cs=tinysrgb\u0026h=350",
                "small": "https://images.pexels.com/photos/298217/pexels-photo-298217.jpeg?auto=compress\u0026cs=tinysrgb\u0026h=130",
                "portrait": "https://images.pexels.com/photos/298217/pexels-photo-298217.jpeg?auto=compress\u0026cs=tinysrgb\u0026fit=crop\u0026h=1200\u0026w=800",
                "landscape": "https://images.pexels.com/photos/298217/pexels-photo-298217.jpeg?auto=compress\u0026cs=tinysrgb\u0026fit=crop\u0026h=627\u0026w=1200",
                "tiny": "https://images.pexels.com/photos/298217/pexels-photo-298217.jpeg?auto=compress\u0026cs=tinysrgb\u0026dpr=1\u0026fit=crop\u0026h=200\u0026w=280"
            },
            "liked": false
        },
        {
            "id": 239581,
            "width": 5472,
            "height": 3648,
            "url": "https://www.pexels.com/photo/french-macarons-in-bowl-239581/",
            "photographer": "Brigitte Tohm",
            "photographer_url": "https://www.pexels.com/@brigitte-tohm-36757",
            "photographer_id": 36757,
            "avg_color": "#54443E",
            "src": {
                "original": "https://images.pexels.com/photos/239581/pexels-photo-239581.jpeg",
                "large2x": "https://images.pexels.com/photos/239581/pexels-photo-239581.jpeg?auto=compress\u0026cs=tinysrgb\u0026dpr=2\u0026h=650\u0026w=940",
                "large": "https://images.pexels.com/photos/239581/pexels-photo-239581.jpeg?auto=compress\u0026cs=tinysrgb\u0026h=650\u0026w=940",
                "medium": "https://images.pexels.com/photos/239581/pexels-photo-239581.jpeg?auto=compress\u0026cs=tinysrgb\u0026h=350",
                "small": "https://images.pexels.com/photos/239581/pexels-photo-239581.jpeg?auto=compress\u0026cs=tinysrgb\u0026h=130",
                "portrait": "https://images.pexels.com/photos/239581/pexels-photo-239581.jpeg?auto=compress\u0026cs=tinysrgb\u0026fit=crop\u0026h=1200\u0026w=800",
                "landscape": "https://images.pexels.com/photos/239581/pexels-photo-239581.jpeg?auto=compress\u0026cs=tinysrgb\u0026fit=crop\u0026h=627\u0026w=1200",
                "tiny": "https://images.pexels.com/photos/239581/pexels-photo-239581.jpeg?auto=compress\u0026cs=tinysrgb\u0026dpr=1\u0026fit=crop\u0026h=200\u0026w=280"
            },
            "liked": false
        },
        {
            "id": 2377474,
            "width": 3456,
            "height": 5184,
            "url": "https://www.pexels.com/photo/pink-flowers-beside-plate-of-biscuits-2377474/",
            "photographer": "Marta Dzedyshko",
            "photographer_url": "https://www.pexels.com/@marta-dzedyshko-1042863",
            "photographer_id": 1042863,
            "avg_color": "#737269",
            "src": {
                "original": "https://images.pexels.com/photos/2377474/pexels-photo-2377474.jpeg",
                "large2x": "https://images.pexels.com/photos/2377474/pexels-photo-2377474.jpeg?auto=compress\u0026cs=tinysrgb\u0026dpr=2\u0026h=650\u0026w=940",
                "large": "https://images.pexels.com/photos/2377474/pexels-photo-2377474.jpeg?auto=compress\u0026cs=tinysrgb\u0026h=650\u0026w=940",
                "medium": "https://images.pexels.com/photos/2377474/pexels-photo-2377474.jpeg?auto=compress\u0026cs=tinysrgb\u0026h=350",
                "small": "https://images.pexels.com/photos/2377474/pexels-photo-2377474.jpeg?auto=compress\u0026cs=tinysrgb\u0026h=130",
                "portrait": "https://images.pexels.com/photos/2377474/pexels-photo-2377474.jpeg?auto=compress\u0026cs=tinysrgb\u0026fit=crop\u0026h=1200\u0026w=800",
                "landscape": "https://images.pexels.com/photos/2377474/pexels-photo-2377474.jpeg?auto=compress\u0026cs=tinysrgb\u0026fit=crop\u0026h=627\u0026w=1200",
                "tiny": "https://images.pexels.com/photos/2377474/pexels-photo-2377474.jpeg?auto=compress\u0026cs=tinysrgb\u0026dpr=1\u0026fit=crop\u0026h=200\u0026w=280"
            },
            "liked": false
        },
        {
            "id": 266706,
            "width": 5184,
            "height": 3456,
            "url": "https://www.pexels.com/photo/biscuits-cookies-cooking-delicious-266706/",
            "photographer": "Pixabay",
            "photographer_url": "https://www.pexels.com/@pixabay",
            "photographer_id": 2659,
            "avg_color": "#6E4B2C",
            "src": {
                "original": "https://images.pexels.com/photos/266706/pexels-photo-266706.jpeg",
                "large2x": "https://images.pexels.com/photos/266706/pexels-photo-266706.jpeg?auto=compress\u0026cs=tinysrgb\u0026dpr=2\u0026h=650\u0026w=940",
                "large": "https://images.pexels.com/photos/266706/pexels-photo-266706.jpeg?auto=compress\u0026cs=tinysrgb\u0026h=650\u0026w=940",
                "medium": "https://images.pexels.com/photos/266706/pexels-photo-266706.jpeg?auto=compress\u0026cs=tinysrgb\u0026h=350",
                "small": "https://images.pexels.com/photos/266706/pexels-photo-266706.jpeg?auto=compress\u0026cs=tinysrgb\u0026h=130",
                "portrait": "https://images.pexels.com/photos/266706/pexels-photo-266706.jpeg?auto=compress\u0026cs=tinysrgb\u0026fit=crop\u0026h=1200\u0026w=800",
                "landscape": "https://images.pexels.com/photos/266706/pexels-photo-266706.jpeg?auto=compress\u0026cs=tinysrgb\u0026fit=crop\u0026h=627\u0026w=1200",
                "tiny": "https://images.pexels.com/photos/266706/pexels-photo-266706.jpeg?auto=compress\u0026cs=tinysrgb\u0026dpr=1\u0026fit=crop\u0026h=200\u0026w=280"
            },
            "liked": false
        },
        {
            "id": 3252139,
            "width": 3456,
            "height": 5184,
            "url": "https://www.pexels.com/photo/stack-of-cookies-3252139/",
            "photographer": "Tijana Drndarski",
            "photographer_url": "https://www.pexels.com/@tijana-drndarski-449691",
            "photographer_id": 449691,
            "avg_color": "#605D5C",
            "src": {
                "original": "https://images.pexels.com/photos/3252139/pexels-photo-3252139.jpeg",
                "large2x": "https://images.pexels.com/photos/3252139/pexels-photo-3252139.jpeg?auto=compress\u0026cs=tinysrgb\u0026dpr=2\u0026h=650\u0026w=940",
                "large": "https://images.pexels.com/photos/3252139/pexels-photo-3252139.jpeg?auto=compress\u0026cs=tinysrgb\u0026h=650\u0026w=940",
                "medium": "https://images.pexels.com/photos/3252139/pexels-photo-3252139.jpeg?auto=compress\u0026cs=tinysrgb\u0026h=350",
                "small": "https://images.pexels.com/photos/3252139/pexels-photo-3252139.jpeg?auto=compress\u0026cs=tinysrgb\u0026h=130",
                "portrait": "https://images.pexels.com/photos/3252139/pexels-photo-3252139.jpeg?auto=compress\u0026cs=tinysrgb\u0026fit=crop\u0026h=1200\u0026w=800",
                "landscape": "https://images.pexels.com/photos/3252139/pexels-photo-3252139.jpeg?auto=compress\u0026cs=tinysrgb\u0026fit=crop\u0026h=627\u0026w=1200",
                "tiny": "https://images.pexels.com/photos/3252139/pexels-photo-3252139.jpeg?auto=compress\u0026cs=tinysrgb\u0026dpr=1\u0026fit=crop\u0026h=200\u0026w=280"
            },
            "liked": false
        }
    ],
    "total_results": 4611,
    "next_page": "https://api.pexels.com/v1/search/?page=7\u0026per_page=12\u0026query=cookies",
    "prev_page": "https://api.pexels.com/v1/search/?page=5\u0026per_page=12\u0026query=cookies"
}