{
    "page": 3,
    "per_page": 12,
    "photos": [
        {
            "id": 4110541,
            "width": 2000,
            "height": 3000,
            "url": "https://www.pexels.com/photo/photo-of-stacked-cookies-4110541/",
            "photographer": "Polina Tankilevitch",
            "photographer_url": "https://www.pexels.com/@polina-tankilevitch",
            "photographer_id": 2104565,
            "avg_color": "#C6B2A1",
            "src": {
                "original": "https://images.pexels.com/photos/4110541/pexels-photo-4110541.jpeg",
                "large2x": "https://images.pexels.com/photos/4110541/pexels-photo-4110541.jpeg?auto=compress\u0026cs=tinysrgb\u0026dpr=2\u0026h=650\u0026w=940",
                "large": "https://images.pexels.com/photos/4110541/pexels-photo-4110541.jpeg?auto=compress\u0026cs=tinysrgb\u0026h=650\u0026w=940",
                "medium": "https://images.pexels.com/photos/4110541/pexels-photo-4110541.jpeg?auto=compress\u0026cs=tinysrgb\u0026h=350",
                "small": "https://images.pexels.com/photos/4110541/pexels-photo-4110541.jpeg?auto=compress\u0026cs=tinysrgb\u0026h=130",
                "portrait": "https://images.pexels.com/photos/4110541/pexels-photo-4110541.jpeg?auto=compress\u0026cs=tinysrgb\u0026fit=crop\u0026h=1200\u0026w=800",
                "landscape": "https://images.pexels.com/photos/4110541/pexels-photo-4110541.jpeg?auto=compress\u0026cs=tinysrgb\u0026fit=crop\u0026h=627\u0026w=1200",
                "tiny": "https://images.pexels.com/photos/4110541/pexels-photo-4110541.jpeg?auto=compress\u0026cs=tinysrgb\u0026dpr=1\u0026fit=crop\u0026h=200\u0026w=280"
            },
            "liked": false
        },
        {
            "id": 2377471,
            "width": 3456,
            "height": 5184,
            "url": "https://www.pexels.com/photo/plate-of-cookies-2377471/",
            "photographer": "Marta Dzedyshko",
            "photographer_url": "https://www.pexels.com/@marta-dzedyshko-1042863",
            "photographer_id": 1042863,
            "avg_color": "#49483E",
            "src": {
                "original": "https://images.pexels.com/photos/2377471/pexels-photo-2377471.jpeg",
                "large2x": "https://images.pexels.com/photos/2377471/pexels-photo-2377471.jpeg?auto=compress\u0026cs=tinysrgb\u0026dpr=2\u0026h=650\u0026w=940",
                "large": "https://images.pexels.com/photos/2377471/pexels-photo-2377471.jpeg?auto=compress\u0026cs=tinysrgb\u0026h=650\u0026w=940",
                "medium": "https://images.pexels.com/photos/2377471/pexels-photo-2377471.jpeg?auto=compress\u0026cs=tinysrgb\u0026h=350",
                "small": "https://images.pexels.com/photos/2377471/pexels-photo-2377471.jpeg?auto=compress\u0026cs=tinysrgb\u0026h=130",
                "portrait": "https://images.pexels.com/photos/2377471/pexels-photo-2377471.jpeg?auto=compress\u0026cs=tinysrgb\u0026fit=crop\u0026h=1200\u0026w=800",
                "landscape": "https://images.pexels.com/photos/2377471/pexels-photo-2377471.jpeg?auto=compress\u0026cs=tinysrgb\u0026fit=crop\u0026h=627\u0026w=1200",
                "tiny": "https://images.pexels.com/photos/2377471/pexels-photo-2377471.jpeg?auto=compress\u0026cs=tinysrgb\u0026dpr=1\u0026fit=crop\u0026h=200\u0026w=280"
            },
            "liked": false
        },
        {
            "id": 4110538,
            "width": 2000,
            "height": 3000,
            "url": "https://www.pexels.com/photo/photo-of-cookies-on-cooking-tray-4110538/",
            "photographer": "Polina Tankilevitch",
            "photographer_url": "https://www.pexels.com/@polina-tankilevitch",
            "photographer_id": 2104565,
            "avg_color": "#C2BCB5",
            "src": {
                "original": "https://images.pexels.com/photos/4110538/pexels-photo-4110538.jpeg",
                "large2x": "https://images.pexels.com/photos/4110538/pexels-photo-4110538.jpeg?auto=compress\u0026cs=tinysrgb\u0026dpr=2\u0026h=650\u0026w=940",
                "large": "https://images.pexels.com/photos/4110538/pexels-photo-4110538.jpeg?auto=compress\u0026cs=tinysrgb\u0026h=650\u0026w=940",
                "medium": "https://images.pexels.com/photos/4110538/pexels-photo-4110538.jpeg?auto=compress\u0026cs=tinysrgb\u0026h=350",
                "small": "https://images.pexels.com/photos/4110538/pexels-photo-4110538.jpeg?auto=compress\u0026cs=tinysrgb\u0026h=130",
                "portrait": "https://images.pexels.com/photos/4110538/pexels-photo-4110538.jpeg?auto=compress\u0026cs=tinysrgb\u0026fit=crop\u0026h=1200\u0026w=800",
                "landscape": "https://images.pexels.com/photos/4110538/pexels-photo-4110538.jpeg?auto=compress\u0026cs=tinysrgb\u0026fit=crop\u0026h=627\u0026w=1200",
                "tiny": "https://images.pexels.com/photos/4110538/pexels-photo-4110538.jpeg?auto=compress\u0026cs=tinysrgb\u0026dpr=1\u0026fit=crop\u0026h=200\u0026w=280"
            },
            "liked": false
        },
        {
            "id": 2067424,
            "width": 5184,
            "height": 3456,
            "url": "https://www.pexels.com/photo/baked-cookies-2067424/",
            "photographer": "Marta Dzedyshko",
            "photographer_url": "https://www.pexels.com/@marta-dzedyshko-1042863",
            "photographer_id": 1042863,
            "avg_color": "#4C4846",
            "src": {
                "original": "https://images.pexels.com/photos/2067424/pexels-photo-2067424.jpeg",
                "large2x": "https://images.pexels.com/photos/2067424/pexels-photo-2067424.jpeg?auto=compress\u0026cs=tinysrgb\u0026dpr=2\u0026h=650\u0026w=940",
                "large": "https://images.pexels.com/photos/2067424/pexels-photo-2067424.jpeg?auto=compress\u0026cs=tinysrgb\u0026h=650\u0026w=940",
                "medium": "https://images.pexels.com/photos/2067424/pexels-photo-2067424.jpeg?auto=compress\u0026cs=tinysrgb\u0026h=350",
                "small": "https://images.pexels.com/photos/2067424/pexels-photo-2067424.jpeg?auto=compress\u0026cs=tinysrgb\u0026h=130",
                "portrait": "https://images.pexels.com/photos/2067424/pexels-photo-2067424.jpeg?auto=compress\u0026cs=tinysrgb\u0026fit=crop\u0026h=1200\u0026w=800",
                "landscape": "https://images.pexels.com/photos/2067424/pexels-photo-2067424.jpeg?auto=compress\u0026cs=tinysrgb\u0026fit=crop\u0026h=627\u0026w=1200",
                "tiny": "https://images.pexels.com/photos/2067424/pexels-photo-2067424.jpeg?auto=compress\u0026cs=tinysrgb\u0026dpr=1\u0026fit=crop\u0026h=200\u0026w=280"
            },
            "liked": false
        },
        {
            "id": 2966132,
            "width": 4000,
            "height": 6000,
            "url": "https://www.pexels.com/photo/white-ceramic-coffee-cup-beside-biscuits-2966132/",
            "photographer": "Nadi Lindsay",
            "photographer_url": "https://www.pexels.com/@nadi-lindsay-1130679",
            "photographer_id": 1130679,
            "avg_color": "#79726F",
            "src": {
                "original": "https://images.pexels.com/photos/2966132/pexels-photo-2966132.jpeg",
                "large2x": "https://images.pexels.com/photos/2966132/pexels-photo-2966132.jpeg?auto=compress\u0026cs=tinysrgb\u0026dpr=2\u0026h=650\u0026w=940",
                "large": "https://images.pexels.com/photos/2966132/pexels-photo-2966132.jpeg?auto=compress\u0026cs=tinysrgb\u0026h=650\u0026w=940",
                "medium": "https://images.pexels.com/photos/2966132/pexels-photo-2966132.jpeg?auto=compress\u0026cs=tinysrgb\u0026h=350",
                "small": "https://images.pexels.com/photos/2966132/pexels-photo-2966132.jpeg?auto=compress\u0026cs=tinysrgb\u0026h=130",
                "portrait": "https://images.pexels.com/photos/2966132/pexels-photo-2966132.jpeg?auto=compress\u0026cs=tinysrgb\u0026fit=crop\u0026h=1200\u0026w=800",
                "landscape": "https://images.pexels.com/photos/2966132/pexels-photo-2966132.jpeg?auto=compress\u0026cs=tinysrgb\u0026fit=crop\u0026h=627\u0026w=1200",
                "tiny": "https://images.pexels.com/photos/2966132/pexels-photo-2966132.jpeg?auto=compress\u0026cs=tinysrgb\u0026dpr=1\u0026fit=crop\u0026h=200\u0026w=280"
            },
            "liked": false
        },
        {
            "id": 3309658,
            "width": 5760,
            "height": 3840,
            "url": "https://www.pexels.com/photo/chocolate-drink-in-a-cup-3309658/",
            "photographer": "Jill Wellington",
            "photographer_url": "https://www.pexels.com/@jill-wellington-1638660",
            "photographer_id": 1638660,
            "avg_color": "#B6A7A9",
            "src": {
                "original": "https://images.pexels.com/photos/3309658/pexels-photo-3309658.jpeg",
                "large2x": "https://images.pexels.com/photos/3309658/pexels-photo-3309658.jpeg?auto=compress\u0026cs=tinysrgb\u0026dpr=2\u0026h=650\u0026w=940",
                "large": "https://images.pexels.com/photos/3309658/pexels-photo-3309658.jpeg?auto=compress\u0026cs=tinysrgb\u0026h=650\u0026w=940",
                "medium": "https://images.pexels.com/photos/3309658/pexels-photo-3309658.jpeg?auto=compress\u0026cs=tinysrgb\u0026h=350",
                "small": "https://images.pexels.com/photos/3309658/pexels-photo-3309658.jpeg?auto=compress\u0026cs=tinysrgb\u0026h=130",
                "portrait": "https://images.pexels.com/photos/3309658/pexels-photo-3309658.jpeg?auto=compress\u0026cs=tinysrgb\u0026fit=crop\u0026h=1200\u0026w=800",
                "landscape": "https://images.pexels.com/photos/3309658/pexels-photo-3309658.jpeg?auto=compress\u0026cs=tinysrgb\u0026fit=crop\u0026h=627\u0026w=1200",
                "tiny": "https://images.pexels.com/photos/3309658/pexels-photo-3309658.jpeg?auto=compress\u0026cs=tinysrgb\u0026dpr=1\u0026fit=crop\u0026h=200\u0026w=280"
            },
            "liked": false
        },
        {
            "id": 3410631,
            "width": 5184,
            "height": 3456,
            "url": "https://www.pexels.com/photo/baked-pastries-in-can-3410631/",
            "photographer": "Antonio Prado",
            "photographer_url": "https://www.pexels.com/@antonio-prado-1050855",
            "photographer_id": 1050855,
            "avg_color": "#7A6955",
            "src": {
                "original": "https://images.pexels.com/photos/3410631/pexels-photo-3410631.jpeg",
                "large2x": "https://images.pexels.com/photos/3410631/pexels-photo-3410631.jpeg?auto=compress\u0026cs=tinysrgb\u0026dpr=2\u0026h=650\u0026w=940",
                "large": "https://images.pexels.com/photos/3410631/pexels-photo-3410631.jpeg?auto=compress\u0026cs=tinysrgb\u0026h=650\u0026w=940",
                "medium": "https://images.pexels.com/photos/3410631/pexels-photo-3410631.jpeg?auto=compress\u0026cs=tinysrgb\u0026h=350",
                "small": "https://images.pexels.com/photos/3410631/pexels-photo-3410631.jpeg?auto=compress\u0026cs=tinysrgb\u0026h=130",
                "portrait": "https://images.pexels.com/photos/3410631/pexels-photo-3410631.jpeg?auto=compress\u0026cs=tinysrgb\u0026fit=crop\u0026h=1200\u0026w=800",
                "landscape": "https://images.pexels.com/photos/3410631/pexels-photo-3410631.jpeg?auto=compress\u0026cs=tinysrgb\u0026fit=crop\u0026h=627\u0026w=1200",
                "tiny": "https://images.pexels.com/photos/3410631/pexels-photo-3410631.jpeg?auto=compress\u0026cs=tinysrgb\u0026dpr=1\u0026fit=crop\u0026h=200\u0026w=280"
            },
            "liked": false
        },
        {
            "id": 2108862,
            "width": 4000,
            "height": 6000,
            "url": "https://www.pexels.com/photo/cup-of-cookies-2108862/",
            "photographer": "Juliana Arceo",
            "photographer_url": "https://www.pexels.com/@juliana-arceo-1113427",
            "photographer_id": 1113427,
            "avg_color": "#59595F",
            "src": {
                "original": "https://images.pexels.com/photos/2108862/pexels-photo-2108862.jpeg",
                "large2x": "https://images.pexels.com/photos/2108862/pexels-photo-2108862.jpeg?auto=compress\u0026cs=tinysrgb\u0026dpr=2\u0026h=650\u0026w=940",
                "large": "https://images.pexels.com/photos/2108862/pexels-photo-2108862.jpeg?auto=compress\u0026cs=tinysrgb\u0026h=650\u0026w=940",
                "medium": "https://images.pexels.com/photos/2108862/pexels-photo-2108862.jpeg?auto=compress\u0026cs=tinysrgb\u0026h=350",
                "small": "https://images.pexels.com/photos/2108862/pexels-photo-2108862.jpeg?auto=compress\u0026cs=tinysrgb\u0026h=130",
                "portrait": "https://images.pexels.com/photos/2108862/pexels-photo-2108862.jpeg?auto=compress\u0026cs=tinysrgb\u0026fit=crop\u0026h=1200\u0026w=800",
                "landscape": "https://images.pexels.com/photos/2108862/pexels-photo-2108862.jpeg?auto=compress\u0026cs=tinysrgb\u0026fit=crop\u0026h=627\u0026w=1200",
                "tiny": "https://images.pexels.com/photos/2108862/pexels-photo-2108862.jpeg?auto=compress\u0026cs=tinysrgb\u0026dpr=1\u0026fit=crop\u0026h=200\u0026w=280"
            },
            "liked": false
        },
        {
            "id": 6061743,
            "width": 6000,
            "height": 4000,
            "url": "https://www.pexels.com/photo/person-holding-a-tray-with-different-shapes-of-brown-cookies-6061743/",
            "photographer": "Nicole Michalou",
            "photographer_url": "https://www.pexels.com/@nicole-michalou",
            "photographer_id": 3674679,
            "avg_color": "#C7B6A7",
            "src": {
                "original": "https://images.pexels.com/photos/6061743/pexels-photo-6061743.jpeg",
                "large2x": "https://images.pexels.com/photos/6061743/pexels-photo-6061743.jpeg?auto=compress\u0026cs=tinysrgb\u0026dpr=2\u0026h=650\u0026w=940",
                "large": "https://images.pexels.com/photos/6061743/pexels-photo-6061743.jpeg?auto=compress\u0026cs=tinysrgb\u0026h=650\u0026w=940",
                "medium": "https://images.pexels.com/photos/6061743/pexels-photo-6061743.jpeg?auto=compress\u0026cs=tinysrgb\u0026h=350",
                "small": "https://images.pexels.com/photos/6061743/pexels-photo-6061743.jpeg?auto=compress\u0026cs=tinysrgb\u0026h=130",
                "portrait": "https://images.pexels.com/photos/6061743/pexels-photo-6061743.jpeg?auto=compress\u0026cs=tinysrgb\u0026fit=crop\u0026h=1200\u0026w=800",
                "landscape": "https://images.pexels.com/photos/6061743/pexels-photo-6061743.jpeg?auto=compress\u0026cs=tinysrgb\u0026fit=crop\u0026h=627\u0026w=1200",
                "tiny": "https://images.pexels.com/photos/6061743/pexels-photo-6061743.jpeg?auto=compress\u0026cs=tinysrgb\u0026dpr=1\u0026fit=crop\u0026h=200\u0026w=280"
            },
            "liked": false
        },
        {
            "id": 6102136,
            "width": 3360,
            "height": 5040,
            "url": "https://www.pexels.com/photo/sweet-traditional-christmas-gingerbread-cookies-6102136/",
            "photographer": "Laura James",
            "photographer_url": "https://www.pexels.com/@laura-james",
            "photographer_id": 6927799,
            "avg_color": "#A47E74",
            "src": {
                "original": "https://images.pexels.com/photos/6102136/pexels-photo-6102136.jpeg",
                "large2x": "https://images.pexels.com/photos/6102136/pexels-photo-6102136.jpeg?auto=compress\u0026cs=tinysrgb\u0026dpr=2\u0026h=650\u0026w=940",
                "large": "https://images.pexels.com/photos/6102136/pexels-photo-6102136.jpeg?auto=compress\u0026cs=tinysrgb\u0026h=650\u0026w=940",
                "medium": "https://images.pexels.com/photos/6102136/pexels-photo-6102136.jpeg?auto=compress\u0026cs=tinysrgb\u0026h=350",
                "small": "https://images.pexels.com/photos/6102136/pexels-photo-6102136.jpeg?auto=compress\u0026cs=tinysrgb\u0026h=130",
                "portrait": "https://images.pexels.com/photos/6102136/pexels-photo-6102136.jpeg?auto=compress\u0026cs=tinysrgb\u0026fit=crop\u0026h=1200\u0026w=800",
                "landscape": "https://images.pexels.com/photos/6102136/pexels-photo-6102136.jpeg?auto=compress\u0026cs=tinysrgb\u0026fit=crop\u0026h=627\u0026w=1200",
                "tiny": "https://images.pexels.com/photos/6102136/pexels-photo-6102136.jpeg?auto=compress\u0026cs=tinysrgb\u0026dpr=1\u0026fit=crop\u0026h=200\u0026w=280"
            },
            "liked": false
        },
        {
            "id": 2372534,
            "width": 6240,
            "height": 4160,
            "url": "https://www.pexels.com/photo/cookies-on-stand-2372534/",
            "photographer": "Luis Quintero",
            "photographer_url": "https://www.pexels.com/@jibarofoto",
            "photographer_id": 447123,
            "avg_color": "#726B5B",
            "src": {
                "original": "https://images.pexels.com/photos/2372534/pexels-photo-2372534.jpeg",
                "large2x": "https://images.pexels.com/photos/2372534/pexels-photo-2372534.jpeg?auto=compress\u0026cs=tinysrgb\u0026dpr=2\u0026h=650\u0026w=940",
                "large": "https://images.pexels.com/photos/2372534/pexels-photo-2372534.jpeg?auto=compress\u0026cs=tinysrgb\u0026h=650\u0026w=940",
                "medium": "https://images.pexels.com/photos/2372534/pexels-photo-2372534.jpeg?auto=compress\u0026cs=tinysrgb\u0026h=350",
                "small": "https://images.pexels.com/photos/2372534/pexels-photo-2372534.jpeg?auto=compress\u0026cs=tinysrgb\u0026h=130",
                "portrait": "https://images.pexels.com/photos/2372534/pexels-photo-2372534.jpeg?auto=compress\u0026cs=tinysrgb\u0026fit=crop\u0026h=1200\u0026w=800",
                "landscape": "https://images.pexels.com/photos/2372534/pexels-photo-2372534.jpeg?auto=compress\u0026cs=tinysrgb\u0026fit=crop\u0026h=627\u0026w=1200",
                "tiny": "https://images.pexels.com/photos/2372534/pexels-photo-2372534.jpeg?auto=compress\u0026cs=tinysrgb\u0026dpr=1\u0026fit=crop\u0026h=200\u0026w=280"
            },
            "liked": false
        },
        {
            "id": 5618032,
            "width": 4016,
            "height": 6016,
            "url": "https://www.pexels.com/photo/christmas-cookies-on-white-ceramic-bowl-5618032/",
            "photographer": "Pavel Danilyuk",
            "photographer_url": "https://www.pexels.com/@pavel-danilyuk",
            "photographer_id": 2297095,
            "avg_color": "#92765C",
            "src": {
                "original": "https://images.pexels.com/photos/5618032/pexels-photo-5618032.jpeg",
                "large2x": "https://images.pexels.com/photos/5618032/pexels-photo-5618032.jpeg?auto=compress\u0026cs=tinysrgb\u0026dpr=2\u0026h=650\u0026w=940",
                "large": "https://images.pexels.com/photos/5618032/pexels-photo-5618032.jpeg?auto=compress\u0026cs=tinysrgb\u0026h=650\u0026w=940",
                "medium": "https://images.pexels.com/photos/5618032/pexels-photo-5618032.jpeg?auto=compress\u0026cs=tinysrgb\u0026h=350",
                "small": "https://images.pexels.com/photos/5618032/pexels-photo-5618032.jpeg?auto=compress\u0026cs=tinysrgb\u0026h=130",
                "portrait": "https://images.pexels.com/photos/5618032/pexels-photo-5618032.jpeg?auto=compress\u0026cs=tinysrgb\u0026fit=crop\u0026h=1200\u0026w=800",
                "landscape": "https://images.pexels.com/photos/5618032/pexels-photo-5618032.jpeg?auto=compress\u0026cs=tinysrgb\u0026fit=crop\u0026h=627\u0026w=1200",
                "tiny": "https://images.pexels.com/photos/5618032/pexels-photo-5618032.jpeg?auto=compress\u0026cs=tinysrgb\u0026dpr=1\u0026fit=crop\u0026h=200\u0026w=280"
            },
            "liked": false
        }
    ],
    "total_results": 4611,
    "next_page": "https://api.pexels.com/v1/search/?page=4\u0026per_page=12\u0026query=cookies",
    "prev_page": "https://api.pexels.com/v1/search/?page=2\u0026per_page=12\u0026query=cookies"
}