{
    "page": 7,
    "per_page": 12,
    "photos": [
        {
            "id": 189537,
            "width": 4096,
            "height": 3072,
            "url": "https://www.pexels.com/photo/cup-of-coffee-and-cookies-on-table-189537/",
            "photographer": "Brigitte Tohm",
            "photographer_url": "https://www.pexels.com/@brigitte-tohm-36757",
            "photographer_id": 36757,
            "avg_color": "#917765",
            "src": {
                "original": "https://images.pexels.com/photos/189537/pexels-photo-189537.jpeg",
                "large2x": "https://images.pexels.com/photos/189537/pexels-photo-189537.jpeg?auto=compress\u0026cs=tinysrgb\u0026dpr=2\u0026h=650\u0026w=940",
                "large": "https://images.pexels.com/photos/189537/pexels-photo-189537.jpeg?auto=compress\u0026cs=tinysrgb\u0026h=650\u0026w=940",
                "medium": "https://images.pexels.com/photos/189537/pexels-photo-189537.jpeg?auto=compress\u0026cs=tinysrgb\u0026h=350",
                "small": "https://images.pexels.com/photos/189537/pexels-photo-189537.jpeg?auto=compress\u0026cs=tinysrgb\u0026h=130",
                "portrait": "https://images.pexels.com/photos/189537/pexels-photo-189537.jpeg?auto=compress\u0026cs=tinysrgb\u0026fit=crop\u0026h=1200\u0026w=800",
                "landscape": "https://images.pexels.com/photos/189537/pexels-photo-189537.jpeg?auto=compress\u0026cs=tinysrgb\u0026fit=crop\u0026h=627\u0026w=1200",
                "tiny": "https://images.pexels.com/photos/189537/pexels-photo-189537.jpeg?auto=compress\u0026cs=tinysrgb\u0026dpr=1\u0026fit=crop\u0026h=200\u0026w=280"
            },
            "liked": false
        },
        {
            "id": 2377477,
            "width": 3456,
            "height": 5184,
            "url": "https://www.pexels.com/photo/chocolate-cookies-2377477/",
            "photographer": "Marta Dzedyshko",
            "photographer_url": "https://www.pexels.com/@marta-dzedyshko-1042863",
            "photographer_id": 1042863,
            "avg_color": "#656157",
            "src": {
                "original": "https://images.pexels.com/photos/2377477/pexels-photo-2377477.jpeg",
                "large2x": "https://images.pexels.com/photos/2377477/pexels-photo-2377477.jpeg?auto=compress\u0026cs=tinysrgb\u0026dpr=2\u0026h=650\u0026w=940",
                "large": "https://images.pexels.com/photos/2377477/pexels-photo-2377477.jpeg?auto=compress\u0026cs=tinysrgb\u0026h=650\u0026w=940",
                "medium": "https://images.pexels.com/photos/2377477/pexels-photo-2377477.jpeg?auto=compress\u0026cs=tinysrgb\u0026h=350",
                "small": "https://images.pexels.com/photos/2377477/pexels-photo-2377477.jpeg?auto=compress\u0026cs=tinysrgb\u0026h=130",
                "portrait": "https://images.pexels.com/photos/2377477/pexels-photo-2377477.jpeg?auto=compress\u0026cs=tinysrgb\u0026fit=crop\u0026h=1200\u0026w=800",
                "landscape": "https://images.pexels.com/photos/2377477/pexels-photo-2377477.jpeg?auto=compress\u0026cs=tinysrgb\u0026fit=crop\u0026h=627\u0026w=1200",
                "tiny": "https://images.pexels.com/photos/2377477/pexels-photo-2377477.jpeg?auto=compress\u0026cs=tinysrgb\u0026dpr=1\u0026fit=crop\u0026h=200\u0026w=280"
            },
            "liked": false
        },
        {
            "id": 289368,
            "width": 3561,
            "height": 5341,
            "url": "https://www.pexels.com/photo/baking-basket-book-bottle-289368/",
            "photographer": "Pixabay",
            "photographer_url": "https://www.pexels.com/@pixabay",
            "photographer_id": 2659,
            "avg_color": "#443A39",
            "src": {
                "original": "https://images.pexels.com/photos/289368/pexels-photo-289368.jpeg",
                "large2x": "https://images.pexels.com/photos/289368/pexels-photo-289368.jpeg?auto=compress\u0026cs=tinysrgb\u0026dpr=2\u0026h=650\u0026w=940",
                "large": "https://images.pexels.com/photos/289368/pexels-photo-289368.jpeg?auto=compress\u0026cs=tinysrgb\u0026h=650\u0026w=940",
                "medium": "https://images.pexels.com/photos/289368/pexels-photo-289368.jpeg?auto=compress\u0026cs=tinysrgb\u0026h=350",
                "small": "https://images.pexels.com/photos/289368/pexels-photo-289368.jpeg?auto=compress\u0026cs=tinysrgb\u0026h=130",
                "portrait": "https://images.pexels.com/photos/289368/pexels-photo-289368.jpeg?auto=compress\u0026cs=tinysrgb\u0026fit=crop\u0026h=1200\u0026w=800",
                "landscape": "https://images.pexels.com/photos/289368/pexels-photo-289368.jpeg?auto=compress\u0026cs=tinysrgb\u0026fit=crop\u0026h=627\u0026w=1200",
                "tiny": "https://images.pexels.com/photos/289368/pexels-photo-289368.jpeg?auto=compress\u0026cs=tinysrgb\u0026dpr=1\u0026fit=crop\u0026h=200\u0026w=280"
            },
            "liked": false
        },
        {
            "id": 3095042,
            "width": 6000,
            "height": 4000,
            "url": "https://www.pexels.com/photo/close-up-photo-of-stacked-cookies-3095042/",
            "photographer": "Vitaly Vlasov",
            "photographer_url": "https://www.pexels.com/@ihasdslr",
            "photographer_id": 566547,
            "avg_color": "#2D1C14",
            "src": {
                "original": "https://images.pexels.com/photos/3095042/pexels-photo-3095042.jpeg",
                "large2x": "https://images.pexels.com/photos/3095042/pexels-photo-3095042.jpeg?auto=compress\u0026cs=tinysrgb\u0026dpr=2\u0026h=650\u0026w=940",
                "large": "https://images.pexels.com/photos/3095042/pexels-photo-3095042.jpeg?auto=compress\u0026cs=tinysrgb\u0026h=650\u0026w=940",
                "medium": "https://images.pexels.com/photos/3095042/pexels-photo-3095042.jpeg?auto=compress\u0026cs=tinysrgb\u0026h=350",
                "small": "https://images.pexels.com/photos/3095042/pexels-photo-3095042.jpeg?auto=compress\u0026cs=tinysrgb\u0026h=130",
                "portrait": "https://images.pexels.com/photos/3095042/pexels-photo-3095042.jpeg?auto=compress\u0026cs=tinysrgb\u0026fit=crop\u0026h=1200\u0026w=800",
                "landscape": "https://images.pexels.com/photos/3095042/pexels-photo-3095042.jpeg?auto=compress\u0026cs=tinysrgb\u0026fit=crop\u0026h=627\u0026w=1200",
                "tiny": "https://images.pexels.com/photos/3095042/pexels-photo-3095042.jpeg?auto=compress\u0026cs=tinysrgb\u0026dpr=1\u0026fit=crop\u0026h=200\u0026w=280"
            },
            "liked": false
        },
        {
            "id": 3252137,
            "width": 3456,
            "height": 5184,
            "url": "https://www.pexels.com/photo/stack-of-biscuits-3252137/",
            "photographer": "Tijana Drndarski",
            "photographer_url": "https://www.pexels.com/@tijana-drndarski-449691",
            "photographer_id": 449691,
            "avg_color": "#807C7B",
            "src": {
                "original": "https://images.pexels.com/photos/3252137/pexels-photo-3252137.jpeg",
                "large2x": "https://images.pexels.com/photos/3252137/pexels-photo-3252137.jpeg?auto=compress\u0026cs=tinysrgb\u0026dpr=2\u0026h=650\u0026w=940",
                "large": "https://images.pexels.com/photos/3252137/pexels-photo-3252137.jpeg?auto=compress\u0026cs=tinysrgb\u0026h=650\u0026w=940",
                "medium": "https://images.pexels.com/photos/3252137/pexels-photo-3252137.jpeg?auto=compress\u0026cs=tinysrgb\u0026h=350",
                "small": "https://images.pexels.com/photos/3252137/pexels-photo-3252137.jpeg?auto=compress\u0026cs=tinysrgb\u0026h=130",
                "portrait": "https://images.pexels.com/photos/3252137/pexels-photo-3252137.jpeg?auto=compress\u0026cs=tinysrgb\u0026fit=crop\u0026h=1200\u0026w=800",
                "landscape": "https://images.pexels.com/photos/3252137/pexels-photo-3252137.jpeg?auto=compress\u0026cs=tinysrgb\u0026fit=crop\u0026h=627\u0026w=1200",
                "tiny": "https://images.pexels.com/photos/3252137/pexels-photo-3252137.jpeg?auto=compress\u0026cs=tinysrgb\u0026dpr=1\u0026fit=crop\u0026h=200\u0026w=280"
            },
            "liked": false
        },
        {
            "id": 3776942,
            "width": 3840,
            "height": 5312,
            "url": "https://www.pexels.com/photo/photo-of-macrons-on-plate-3776942/",
            "photographer": "Jill Wellington",
            "photographer_url": "https://www.pexels.com/@jill-wellington-1638660",
            "photographer_id": 1638660,
            "avg_color": "#CDCCC6",
            "src": {
                "original": "https://images.pexels.com/photos/3776942/pexels-photo-3776942.jpeg",
                "large2x": "https://images.pexels.com/photos/3776942/pexels-photo-3776942.jpeg?auto=compress\u0026cs=tinysrgb\u0026dpr=2\u0026h=650\u0026w=940",
                "large": "https://images.pexels.com/photos/3776942/pexels-photo-3776942.jpeg?auto=compress\u0026cs=tinysrgb\u0026h=650\u0026w=940",
                "medium": "https://images.pexels.com/photos/3776942/pexels-photo-3776942.jpeg?auto=compress\u0026cs=tinysrgb\u0026h=350",
                "small": "https://images.pexels.com/photos/3776942/pexels-photo-3776942.jpeg?auto=compress\u0026cs=tinysrgb\u0026h=130",
                "portrait": "https://images.pexels.com/photos/3776942/pexels-photo-3776942.jpeg?auto=compress\u0026cs=tinysrgb\u0026fit=crop\u0026h=1200\u0026w=800",
                "landscape": "https://images.pexels.com/photos/3776942/pexels-photo-3776942.jpeg?auto=compress\u0026cs=tinysrgb\u0026fit=crop\u0026h=627\u0026w=1200",
                "tiny": "https://images.pexels.com/photos/3776942/pexels-photo-3776942.jpeg?auto=compress\u0026cs=tinysrgb\u0026dpr=1\u0026fit=crop\u0026h=200\u0026w=280"
            },
            "liked": false
        },
        {
            "id": 3309805,
            "width": 5760,
            "height": 3840,
            "url": "https://www.pexels.com/photo/top-view-of-gingerbread-cookies-laid-flat-on-a-wooden-table-3309805/",
            "photographer": "Jill Wellington",
            "photographer_url": "https://www.pexels.com/@jill-wellington-1638660",
            "photographer_id": 1638660,
            "avg_color": "#CCB696",
            "src": {
                "original": "https://images.pexels.com/photos/3309805/pexels-photo-3309805.jpeg",
                "large2x": "https://images.pexels.com/photos/3309805/pexels-photo-3309805.jpeg?auto=compress\u0026cs=tinysrgb\u0026dpr=2\u0026h=650\u0026w=940",
                "large": "https://images.pexels.com/photos/3309805/pexels-photo-3309805.jpeg?auto=compress\u0026cs=tinysrgb\u0026h=650\u0026w=940",
                "medium": "https://images.pexels.com/photos/3309805/pexels-photo-3309805.jpeg?auto=compress\u0026cs=tinysrgb\u0026h=350",
                "small": "https://images.pexels.com/photos/3309805/pexels-photo-3309805.jpeg?auto=compress\u0026cs=tinysrgb\u0026h=130",
                "portrait": "https://images.pexels.com/photos/3309805/pexels-photo-3309805.jpeg?auto=compress\u0026cs=tinysrgb\u0026fit=crop\u0026h=1200\u0026w=800",
                "landscape": "https://images.pexels.com/photos/3309805/pexels-photo-3309805.jpeg?auto=compress\u0026cs=tinysrgb\u0026fit=crop\u0026h=627\u0026w=1200",
                "tiny": "https://images.pexels.com/photos/3309805/pexels-photo-3309805.jpeg?auto=compress\u0026cs=tinysrgb\u0026dpr=1\u0026fit=crop\u0026h=200\u0026w=280"
            },
            "liked": false
        },
        {
            "id": 3250406,
            "width": 3456,
            "height": 5184,
            "url": "https://www.pexels.com/photo/photo-of-cookies-on-a-bowl-3250406/",
            "photographer": "chudesabyvaut",
            "photographer_url": "https://www.pexels.com/@chudesabyvaut-1351350",
            "photographer_id": 1351350,
            "avg_color": "#AD9582",
            "src": {
                "original": "https://images.pexels.com/photos/3250406/pexels-photo-3250406.jpeg",
                "large2x": "https://images.pexels.com/photos/3250406/pexels-photo-3250406.jpeg?auto=compress\u0026cs=tinysrgb\u0026dpr=2\u0026h=650\u0026w=940",
                "large": "https://images.pexels.com/photos/3250406/pexels-photo-3250406.jpeg?auto=compress\u0026cs=tinysrgb\u0026h=650\u0026w=940",
                "medium": "https://images.pexels.com/photos/3250406/pexels-photo-3250406.jpeg?auto=compress\u0026cs=tinysrgb\u0026h=350",
                "small": "https://images.pexels.com/photos/3250406/pexels-photo-3250406.jpeg?auto=compress\u0026cs=tinysrgb\u0026h=130",
                "portrait": "https://images.pexels.com/photos/3250406/pexels-photo-3250406.jpeg?auto=compress\u0026cs=tinysrgb\u0026fit=crop\u0026h=1200\u0026w=800",
                "landscape": "https://images.pexels.com/photos/3250406/pexels-photo-3250406.jpeg?auto=compress\u0026cs=tinysrgb\u0026fit=crop\u0026h=627\u0026w=1200",
                "tiny": "https://images.pexels.com/photos/3250406/pexels-photo-3250406.jpeg?auto=compress\u0026cs=tinysrgb\u0026dpr=1\u0026fit=crop\u0026h=200\u0026w=280"
            },
            "liked": false
        },
        {
            "id": 3776939,
            "width": 5760,
            "height": 3840,
            "url": "https://www.pexels.com/photo/photo-of-macarons-3776939/",
            "photographer": "Jill Wellington",
            "photographer_url": "https://www.pexels.com/@jill-wellington-1638660",
            "photographer_id": 1638660,
            "avg_color": "#BFBDBE",
            "src": {
                "original": "https://images.pexels.com/photos/3776939/pexels-photo-3776939.jpeg",
                "large2x": "https://images.pexels.com/photos/3776939/pexels-photo-3776939.jpeg?auto=compress\u0026cs=tinysrgb\u0026dpr=2\u0026h=650\u0026w=940",
                "large": "https://images.pexels.com/photos/3776939/pexels-photo-3776939.jpeg?auto=compress\u0026cs=tinysrgb\u0026h=650\u0026w=940",
                "medium": "https://images.pexels.com/photos/3776939/pexels-photo-3776939.jpeg?auto=compress\u0026cs=tinysrgb\u0026h=350",
                "small": "https://images.pexels.com/photos/3776939/pexels-photo-3776939.jpeg?auto=compress\u0026cs=tinysrgb\u0026h=130",
                "portrait": "https://images.pexels.com/photos/3776939/pexels-photo-3776939.jpeg?auto=compress\u0026cs=tinysrgb\u0026fit=crop\u0026h=1200\u0026w=800",
                "landscape": "https://images.pexels.com/photos/3776939/pexels-photo-3776939.jpeg?auto=compress\u0026cs=tinysrgb\u0026fit=crop\u0026h=627\u0026w=1200",
                "tiny": "https://images.pexels.com/photos/3776939/pexels-photo-3776939.jpeg?auto=compress\u0026cs=tinysrgb\u0026dpr=1\u0026fit=crop\u0026h=200\u0026w=280"
            },
            "liked": false
        },
        {
            "id": 3553703,
            "width": 3840,
            "height": 5760,
            "url": "https://www.pexels.com/photo/baked-pastries-3553703/",
            "photographer": "Jill Wellington",
            "photographer_url": "https://www.pexels.com/@jill-wellington-1638660",
            "photographer_id": 1638660,
            "avg_color": "#E6BAB6",
            "src": {
                "original": "https://images.pexels.com/photos/3553703/pexels-photo-3553703.jpeg",
                "large2x": "https://images.pexels.com/photos/3553703/pexels-photo-3553703.jpeg?auto=compress\u0026cs=tinysrgb\u0026dpr=2\u0026h=650\u0026w=940",
                "large": "https://images.pexels.com/photos/3553703/pexels-photo-3553703.jpeg?auto=compress\u0026cs=tinysrgb\u0026h=650\u0026w=940",
                "medium": "https://images.pexels.com/photos/3553703/pexels-photo-3553703.jpeg?auto=compress\u0026cs=tinysrgb\u0026h=350",
                "small": "https://images.pexels.com/photos/3553703/pexels-photo-3553703.jpeg?auto=compress\u0026cs=tinysrgb\u0026h=130",
                "portrait": "https://images.pexels.com/photos/3553703/pexels-photo-3553703.jpeg?auto=compress\u0026cs=tinysrgb\u0026fit=crop\u0026h=1200\u0026w=800",
                "landscape": "https://images.pexels.com/photos/3553703/pexels-photo-3553703.jpeg?auto=compress\u0026cs=tinysrgb\u0026fit=crop\u0026h=627\u0026w=1200",
                "tiny": "https://images.pexels.com/photos/3553703/pexels-photo-3553703.jpeg?auto=compress\u0026cs=tinysrgb\u0026dpr=1\u0026fit=crop\u0026h=200\u0026w=280"
            },
            "liked": false
        },
        {
            "id": 314780,
            "width": 5643,
            "height": 3762,
            "url": "https://www.pexels.com/photo/appetizer-apples-berries-berry-314780/",
            "photographer": "Pixabay",
            "photographer_url": "https://www.pexels.com/@pixabay",
            "photographer_id": 2659,
            "avg_color": "#79655A",
            "src": {
                "original": "https://images.pexels.com/photos/314780/pexels-photo-314780.jpeg",
                "large2x": "https://images.pexels.com/photos/314780/pexels-photo-314780.jpeg?auto=compress\u0026cs=tinysrgb\u0026dpr=2\u0026h=650\u0026w=940",
                "large": "https://images.pexels.com/photos/314780/pexels-photo-314780.jpeg?auto=compress\u0026cs=tinysrgb\u0026h=650\u0026w=940",
                "medium": "https://images.pexels.com/photos/314780/pexels-photo-314780.jpeg?auto=compress\u0026cs=tinysrgb\u0026h=350",
                "small": "https://images.pexels.com/photos/314780/pexels-photo-314780.jpeg?auto=compress\u0026cs=tinysrgb\u0026h=130",
                "portrait": "https://images.pexels.com/photos/314780/pexels-photo-314780.jpeg?auto=compress\u0026cs=tinysrgb\u0026fit=crop\u0026h=1200\u0026w=800",
                "landscape": "https://images.pexels.com/photos/314780/pexels-photo-314780.jpeg?auto=compress\u0026cs=tinysrgb\u0026fit=crop\u0026h=627\u0026w=1200",
                "tiny": "https://images.pexels.com/photos/314780/pexels-photo-314780.jpeg?auto=compress\u0026cs=tinysrgb\u0026dpr=1\u0026fit=crop\u0026h=200\u0026w=280"
            },
            "liked": false
        },
        {
            "id": 1693626,
            "width": 6000,
            "height": 4000,
            "url": "https://www.pexels.com/photo/floral-ceramic-cup-and-saucer-above-open-book-1693626/",
            "photographer": "Ylanite Koppens",
            "photographer_url": "https://www.pexels.com/@nietjuh",
            "photographer_id": 196863,
            "avg_color": "#979296",
            "src": {
                "original": "https://images.pexels.com/photos/1693626/pexels-photo-1693626.jpeg",
                "large2x": "https://images.pexels.com/photos/1693626/pexels-photo-1693626.jpeg?auto=compress\u0026cs=tinysrgb\u0026dpr=2\u0026h=650\u0026w=940",
                "large": "https://images.pexels.com/photos/1693626/pexels-photo-1693626.jpeg?auto=compress\u0026cs=tinysrgb\u0026h=650\u0026w=940",
                "medium": "https://images.pexels.com/photos/1693626/pexels-photo-1693626.jpeg?auto=compress\u0026cs=tinysrgb\u0026h=350",
                "small": "https://images.pexels.com/photos/1693626/pexels-photo-1693626.jpeg?auto=compress\u0026cs=tinysrgb\u0026h=130",
                "portrait": "https://images.pexels.com/photos/1693626/pexels-photo-1693626.jpeg?auto=compress\u0026cs=tinysrgb\u0026fit=crop\u0026h=1200\u0026w=800",
                "landscape": "https://images.pexels.com/photos/1693626/pexels-photo-1693626.jpeg?auto=compress\u0026cs=tinysrgb\u0026fit=crop\u0026h=627\u0026w=1200",
                "tiny": "https://images.pexels.com/photos/1693626/pexels-photo-1693626.jpeg?auto=compress\u0026cs=tinysrgb\u0026dpr=1\u0026fit=crop\u0026h=200\u0026w=280"
            },
            "liked": false
        }
    ],
    "total_results": 4611,
    "next_page": "https://api.pexels.com/v1/search/?page=8\u0026per_page=12\u0026query=cookies",
    "prev_page": "https://api.pexels.com/v1/search/?page=6\u0026per_page=12\u0026query=cookies"
}