{
    "page": 5,
    "per_page": 12,
    "photos": [
        {
            "id": 5832692,
            "width": 3840,
            "height": 5760,
            "url": "https://www.pexels.com/photo/food-wood-vacation-winter-5832692/",
            "photographer": "Jill Wellington",
            "photographer_url": "https://www.pexels.com/@jill-wellington-1638660",
            "photographer_id": 1638660,
            "avg_color": "#B08657",
            "src": {
                "original": "https://images.pexels.com/photos/5832692/pexels-photo-5832692.jpeg",
                "large2x": "https://images.pexels.com/photos/5832692/pexels-photo-5832692.jpeg?auto=compress\u0026cs=tinysrgb\u0026dpr=2\u0026h=650\u0026w=940",
                "large": "https://images.pexels.com/photos/5832692/pexels-photo-5832692.jpeg?auto=compress\u0026cs=tinysrgb\u0026h=650\u0026w=940",
                "medium": "https://images.pexels.com/photos/5832692/pexels-photo-5832692.jpeg?auto=compress\u0026cs=tinysrgb\u0026h=350",
                "small": "https://images.pexels.com/photos/5832692/pexels-photo-5832692.jpeg?auto=compress\u0026cs=tinysrgb\u0026h=130",
                "portrait": "https://images.pexels.com/photos/5832692/pexels-photo-5832692.jpeg?auto=compress\u0026cs=tinysrgb\u0026fit=crop\u0026h=1200\u0026w=800",
                "landscape": "https://images.pexels.com/photos/5832692/pexels-photo-5832692.jpeg?auto=compress\u0026cs=tinysrgb\u0026fit=crop\u0026h=627\u0026w=1200",
                "tiny": "https://images.pexels.com/photos/5832692/pexels-photo-5832692.jpeg?auto=compress\u0026cs=tinysrgb\u0026dpr=1\u0026fit=crop\u0026h=200\u0026w=280"
            },
            "liked": false
        },
        {
            "id": 5620419,
            "width": 3024,
            "height": 4032,
            "url": "https://www.pexels.com/photo/food-sugar-autumn-candy-5620419/",
            "photographer": "Amnah Mohammad",
            "photographer_url": "https://www.pexels.com/@amnahmohammad",
            "photographer_id": 3586140,
            "avg_color": "#9B9995",
            "src": {
                "original": "https://images.pexels.com/photos/5620419/pexels-photo-5620419.jpeg",
                "large2x": "https://images.pexels.com/photos/5620419/pexels-photo-5620419.jpeg?auto=compress\u0026cs=tinysrgb\u0026dpr=2\u0026h=650\u0026w=940",
                "large": "https://images.pexels.com/photos/5620419/pexels-photo-5620419.jpeg?auto=compress\u0026cs=tinysrgb\u0026h=650\u0026w=940",
                "medium": "https://images.pexels.com/photos/5620419/pexels-photo-5620419.jpeg?auto=compress\u0026cs=tinysrgb\u0026h=350",
                "small": "https://images.pexels.com/photos/5620419/pexels-photo-5620419.jpeg?auto=compress\u0026cs=tinysrgb\u0026h=130",
                "portrait": "https://images.pexels.com/photos/5620419/pexels-photo-5620419.jpeg?auto=compress\u0026cs=tinysrgb\u0026fit=crop\u0026h=1200\u0026w=800",
                "landscape": "https://images.pexels.com/photos/5620419/pexels-photo-5620419.jpeg?auto=compress\u0026cs=tinysrgb\u0026fit=crop\u0026h=627\u0026w=1200",
                "tiny": "https://images.pexels.com/photos/5620419/pexels-photo-5620419.jpeg?auto=compress\u0026cs=tinysrgb\u0026dpr=1\u0026fit=crop\u0026h=200\u0026w=280"
            },
            "liked": false
        },
        {
            "id": 4443405,
            "width": 5618,
            "height": 3750,
            "url": "https://www.pexels.com/photo/food-dawn-coffee-sugar-4443405/",
            "photographer": "Emily D",
            "photographer_url": "https://www.pexels.com/@emily-d-2789482",
            "photographer_id": 2789482,
            "avg_color": "#B8B3AB",
            "src": {
                "original": "https://images.pexels.com/photos/4443405/pexels-photo-4443405.jpeg",
                "large2x": "https://images.pexels.com/photos/4443405/pexels-photo-4443405.jpeg?auto=compress\u0026cs=tinysrgb\u0026dpr=2\u0026h=650\u0026w=940",
                "large": "https://images.pexels.com/photos/4443405/pexels-photo-4443405.jpeg?auto=compress\u0026cs=tinysrgb\u0026h=650\u0026w=940",
                "medium": "https://images.pexels.com/photos/4443405/pexels-photo-4443405.jpeg?auto=compress\u0026cs=tinysrgb\u0026h=350",
                "small": "https://images.pexels.com/photos/4443405/pexels-photo-4443405.jpeg?auto=compress\u0026cs=tinysrgb\u0026h=130",
                "portrait": "https://images.pexels.com/photos/4443405/pexels-photo-4443405.jpeg?auto=compress\u0026cs=tinysrgb\u0026fit=crop\u0026h=1200\u0026w=800",
                "landscape": "https://images.pexels.com/photos/4443405/pexels-photo-4443405.jpeg?auto=compress\u0026cs=tinysrgb\u0026fit=crop\u0026h=627\u0026w=1200",
                "tiny": "https://images.pexels.com/photos/4443405/pexels-photo-4443405.jpeg?auto=compress\u0026cs=tinysrgb\u0026dpr=1\u0026fit=crop\u0026h=200\u0026w=280"
            },
            "liked": false
        },
        {
            "id": 5878306,
            "width": 5184,
            "height": 3456,
            "url": "https://www.pexels.com/photo/bread-food-sugar-gift-5878306/",
            "photographer": "Arun Thomas",
            "photographer_url": "https://www.pexels.com/@arunbabuthomas",
            "photographer_id": 249695,
            "avg_color": "#C6BEB6",
            "src": {
                "original": "https://images.pexels.com/photos/5878306/pexels-photo-5878306.jpeg",
                "large2x": "https://images.pexels.com/photos/5878306/pexels-photo-5878306.jpeg?auto=compress\u0026cs=tinysrgb\u0026dpr=2\u0026h=650\u0026w=940",
                "large": "https://images.pexels.com/photos/5878306/pexels-photo-5878306.jpeg?auto=compress\u0026cs=tinysrgb\u0026h=650\u0026w=940",
                "medium": "https://images.pexels.com/photos/5878306/pexels-photo-5878306.jpeg?auto=compress\u0026cs=tinysrgb\u0026h=350",
                "small": "https://images.pexels.com/photos/5878306/pexels-photo-5878306.jpeg?auto=compress\u0026cs=tinysrgb\u0026h=130",
                "portrait": "https://images.pexels.com/photos/5878306/pexels-photo-5878306.jpeg?auto=compress\u0026cs=tinysrgb\u0026fit=crop\u0026h=1200\u0026w=800",
                "landscape": "https://images.pexels.com/photos/5878306/pexels-photo-5878306.jpeg?auto=compress\u0026cs=tinysrgb\u0026fit=crop\u0026h=627\u0026w=1200",
                "tiny": "https://images.pexels.com/photos/5878306/pexels-photo-5878306.jpeg?auto=compress\u0026cs=tinysrgb\u0026dpr=1\u0026fit=crop\u0026h=200\u0026w=280"
            },
            "liked": false
        },
        {
            "id": 890577,
            "width": 5250,
            "height": 3499,
            "url": "https://www.pexels.com/photo/cookies-on-square-white-ceramic-plate-890577/",
            "photographer": "Oleg Magni",
            "photographer_url": "https://www.pexels.com/@oleg-magni",
            "photographer_id": 293608,
            "avg_color": "#A27E6A",
            "src": {
                "original": "https://images.pexels.com/photos/890577/pexels-photo-890577.jpeg",
                "large2x": "https://images.pexels.com/photos/890577/pexels-photo-890577.jpeg?auto=compress\u0026cs=tinysrgb\u0026dpr=2\u0026h=650\u0026w=940",
                "large": "https://images.pexels.com/photos/890577/pexels-photo-890577.jpeg?auto=compress\u0026cs=tinysrgb\u0026h=650\u0026w=940",
                "medium": "https://images.pexels.com/photos/890577/pexels-photo-890577.jpeg?auto=compress\u0026cs=tinysrgb\u0026h=350",
                "small": "https://images.pexels.com/photos/890577/pexels-photo-890577.jpeg?auto=compress\u0026cs=tinysrgb\u0026h=130",
                "portrait": "https://images.pexels.com/photos/890577/pexels-photo-890577.jpeg?auto=compress\u0026cs=tinysrgb\u0026fit=crop\u0026h=1200\u0026w=800",
                "landscape": "https://images.pexels.com/photos/890577/pexels-photo-890577.jpeg?auto=compress\u0026cs=tinysrgb\u0026fit=crop\u0026h=627\u0026w=1200",
                "tiny": "https://images.pexels.com/photos/890577/pexels-photo-890577.jpeg?auto=compress\u0026cs=tinysrgb\u0026dpr=1\u0026fit=crop\u0026h=200\u0026w=280"
            },
            "liked": false
        },
        {
            "id": 230325,
            "width": 6000,
            "height": 4000,
            "url": "https://www.pexels.com/photo/macro-photography-of-pile-of-3-cookie-230325/",
            "photographer": "Lisa",
            "photographer_url": "https://www.pexels.com/@fotios-photos",
            "photographer_id": 26735,
            "avg_color": "#8D6E5C",
            "src": {
                "original": "https://images.pexels.com/photos/230325/pexels-photo-230325.jpeg",
                "large2x": "https://images.pexels.com/photos/230325/pexels-photo-230325.jpeg?auto=compress\u0026cs=tinysrgb\u0026dpr=2\u0026h=650\u0026w=940",
                "large": "https://images.pexels.com/photos/230325/pexels-photo-230325.jpeg?auto=compress\u0026cs=tinysrgb\u0026h=650\u0026w=940",
                "medium": "https://images.pexels.com/photos/230325/pexels-photo-230325.jpeg?auto=compress\u0026cs=tinysrgb\u0026h=350",
                "small": "https://images.pexels.com/photos/230325/pexels-photo-230325.jpeg?auto=compress\u0026cs=tinysrgb\u0026h=130",
                "portrait": "https://images.pexels.com/photos/230325/pexels-photo-230325.jpeg?auto=compress\u0026cs=tinysrgb\u0026fit=crop\u0026h=1200\u0026w=800",
                "landscape": "https://images.pexels.com/photos/230325/pexels-photo-230325.jpeg?auto=compress\u0026cs=tinysrgb\u0026fit=crop\u0026h=627\u0026w=1200",
                "tiny": "https://images.pexels.com/photos/230325/pexels-photo-230325.jpeg?auto=compress\u0026cs=tinysrgb\u0026dpr=1\u0026fit=crop\u0026h=200\u0026w=280"
            },
            "liked": false
        },
        {
            "id": 1775283,
            "width": 4096,
            "height": 2730,
            "url": "https://www.pexels.com/photo/selective-focus-photography-of-chocolate-cookies-1775283/",
            "photographer": "Tina Nord",
            "photographer_url": "https://www.pexels.com/@nord6",
            "photographer_id": 259428,
            "avg_color": "#554333",
            "src": {
                "original": "https://images.pexels.com/photos/1775283/pexels-photo-1775283.jpeg",
                "large2x": "https://images.pexels.com/photos/1775283/pexels-photo-1775283.jpeg?auto=compress\u0026cs=tinysrgb\u0026dpr=2\u0026h=650\u0026w=940",
                "large": "https://images.pexels.com/photos/1775283/pexels-photo-1775283.jpeg?auto=compress\u0026cs=tinysrgb\u0026h=650\u0026w=940",
                "medium": "https://images.pexels.com/photos/1775283/pexels-photo-1775283.jpeg?auto=compress\u0026cs=tinysrgb\u0026h=350",
                "small": "https://images.pexels.com/photos/1775283/pexels-photo-1775283.jpeg?auto=compress\u0026cs=tinysrgb\u0026h=130",
                "portrait": "https://images.pexels.com/photos/1775283/pexels-photo-1775283.jpeg?auto=compress\u0026cs=tinysrgb\u0026fit=crop\u0026h=1200\u0026w=800",
                "landscape": "https://images.pexels.com/photos/1775283/pexels-photo-1775283.jpeg?auto=compress\u0026cs=tinysrgb\u0026fit=crop\u0026h=627\u0026w=1200",
                "tiny": "https://images.pexels.com/photos/1775283/pexels-photo-1775283.jpeg?auto=compress\u0026cs=tinysrgb\u0026dpr=1\u0026fit=crop\u0026h=200\u0026w=280"
            },
            "liked": false
        },
        {
            "id": 3095041,
            "width": 6000,
            "height": 4000,
            "url": "https://www.pexels.com/photo/close-up-photo-of-cookies-3095041/",
            "photographer": "Vitaly Vlasov",
            "photographer_url": "https://www.pexels.com/@ihasdslr",
            "photographer_id": 566547,
            "avg_color": "#2C221A",
            "src": {
                "original": "https://images.pexels.com/photos/3095041/pexels-photo-3095041.jpeg",
                "large2x": "https://images.pexels.com/photos/3095041/pexels-photo-3095041.jpeg?auto=compress\u0026cs=tinysrgb\u0026dpr=2\u0026h=650\u0026w=940",
                "large": "https://images.pexels.com/photos/3095041/pexels-photo-3095041.jpeg?auto=compress\u0026cs=tinysrgb\u0026h=650\u0026w=940",
                "medium": "https://images.pexels.com/photos/3095041/pexels-photo-3095041.jpeg?auto=compress\u0026cs=tinysrgb\u0026h=350",
                "small": "https://images.pexels.com/photos/3095041/pexels-photo-3095041.jpeg?auto=compress\u0026cs=tinysrgb\u0026h=130",
                "portrait": "https://images.pexels.com/photos/3095041/pexels-photo-3095041.jpeg?auto=compress\u0026cs=tinysrgb\u0026fit=crop\u0026h=1200\u0026w=800",
                "landscape": "https://images.pexels.com/photos/3095041/pexels-photo-3095041.jpeg?auto=compress\u0026cs=tinysrgb\u0026fit=crop\u0026h=627\u0026w=1200",
                "tiny": "https://images.pexels.com/photos/3095041/pexels-photo-3095041.jpeg?auto=compress\u0026cs=tinysrgb\u0026dpr=1\u0026fit=crop\u0026h=200\u0026w=280"
            },
            "liked": false
        },
        {
            "id": 808941,
            "width": 5945,
            "height": 3963,
            "url": "https://www.pexels.com/photo/four-macaroons-808941/",
            "photographer": "Arminas Raudys",
            "photographer_url": "https://www.pexels.com/@raudys",
            "photographer_id": 264281,
            "avg_color": "#BEB6B1",
            "src": {
                "original": "https://images.pexels.com/photos/808941/pexels-photo-808941.jpeg",
                "large2x": "https://images.pexels.com/photos/808941/pexels-photo-808941.jpeg?auto=compress\u0026cs=tinysrgb\u0026dpr=2\u0026h=650\u0026w=940",
                "large": "https://images.pexels.com/photos/808941/pexels-photo-808941.jpeg?auto=compress\u0026cs=tinysrgb\u0026h=650\u0026w=940",
                "medium": "https://images.pexels.com/photos/808941/pexels-photo-808941.jpeg?auto=compress\u0026cs=tinysrgb\u0026h=350",
                "small": "https://images.pexels.com/photos/808941/pexels-photo-808941.jpeg?auto=compress\u0026cs=tinysrgb\u0026h=130",
                "portrait": "https://images.pexels.com/photos/808941/pexels-photo-808941.jpeg?auto=compress\u0026cs=tinysrgb\u0026fit=crop\u0026h=1200\u0026w=800",
                "landscape": "https://images.pexels.com/photos/808941/pexels-photo-808941.jpeg?auto=compress\u0026cs=tinysrgb\u0026fit=crop\u0026h=627\u0026w=1200",
                "tiny": "https://images.pexels.com/photos/808941/pexels-photo-808941.jpeg?auto=compress\u0026cs=tinysrgb\u0026dpr=1\u0026fit=crop\u0026h=200\u0026w=280"
            },
            "liked": false
        },
        {
            "id": 301972,
            "width": 5264,
            "height": 3251,
            "url": "https://www.pexels.com/photo/cookies-crumbs-dessert-food-301972/",
            "photographer": "Pixabay",
            "photographer_url": "https://www.pexels.com/@pixabay",
            "photographer_id": 2659,
            "avg_color": "#584837",
            "src": {
                "original": "https://images.pexels.com/photos/301972/pexels-photo-301972.jpeg",
                "large2x": "https://images.pexels.com/photos/301972/pexels-photo-301972.jpeg?auto=compress\u0026cs=tinysrgb\u0026dpr=2\u0026h=650\u0026w=940",
                "large": "https://images.pexels.com/photos/301972/pexels-photo-301972.jpeg?auto=compress\u0026cs=tinysrgb\u0026h=650\u0026w=940",
                "medium": "https://images.pexels.com/photos/301972/pexels-photo-301972.jpeg?auto=compress\u0026cs=tinysrgb\u0026h=350",
                "small": "https://images.pexels.com/photos/301972/pexels-photo-301972.jpeg?auto=compress\u0026cs=tinysrgb\u0026h=130",
                "portrait": "https://images.pexels.com/photos/301972/pexels-photo-301972.jpeg?auto=compress\u0026cs=tinysrgb\u0026fit=crop\u0026h=1200\u0026w=800",
                "landscape": "https://images.pexels.com/photos/301972/pexels-photo-301972.jpeg?auto=compress\u0026cs=tinysrgb\u0026fit=crop\u0026h=627\u0026w=1200",
                "tiny": "https://images.pexels.com/photos/301972/pexels-photo-301972.jpeg?auto=compress\u0026cs=tinysrgb\u0026dpr=1\u0026fit=crop\u0026h=200\u0026w=280"
            },
            "liked": false
        },
        {
            "id": 1020585,
            "width": 5520,
            "height": 3680,
            "url": "https://www.pexels.com/photo/cookies-in-ceramic-plates-1020585/",
            "photographer": "Sara Santos",
            "photographer_url": "https://www.pexels.com/@sara-santos-381576",
            "photographer_id": 381576,
            "avg_color": "#D2BCB1",
            "src": {
                "original": "https://images.pexels.com/photos/1020585/pexels-photo-1020585.jpeg",
                "large2x": "https://images.pexels.com/photos/1020585/pexels-photo-1020585.jpeg?auto=compress\u0026cs=tinysrgb\u0026dpr=2\u0026h=650\u0026w=940",
                "large": "https://images.pexels.com/photos/1020585/pexels-photo-1020585.jpeg?auto=compress\u0026cs=tinysrgb\u0026h=650\u0026w=940",
                "medium": "https://images.pexels.com/photos/1020585/pexels-photo-1020585.jpeg?auto=compress\u0026cs=tinysrgb\u0026h=350",
                "small": "https://images.pexels.com/photos/1020585/pexels-photo-1020585.jpeg?auto=compress\u0026cs=tinysrgb\u0026h=130",
                "portrait": "https://images.pexels.com/photos/1020585/pexels-photo-1020585.jpeg?auto=compress\u0026cs=tinysrgb\u0026fit=crop\u0026h=1200\u0026w=800",
                "landscape": "https://images.pexels.com/photos/1020585/pexels-photo-1020585.jpeg?auto=compress\u0026cs=tinysrgb\u0026fit=crop\u0026h=627\u0026w=1200",
                "tiny": "https://images.pexels.com/photos/1020585/pexels-photo-1020585.jpeg?auto=compress\u0026cs=tinysrgb\u0026dpr=1\u0026fit=crop\u0026h=200\u0026w=280"
            },
            "liked": false
        },
        {
            "id": 189536,
            "width": 3648,
            "height": 5472,
            "url": "https://www.pexels.com/photo/brown-cookies-189536/",
            "photographer": "Brigitte Tohm",
            "photographer_url": "https://www.pexels.com/@brigitte-tohm-36757",
            "photographer_id": 36757,
            "avg_color": "#92705E",
            "src": {
                "original": "https://images.pexels.com/photos/189536/pexels-photo-189536.jpeg",
                "large2x": "https://images.pexels.com/photos/189536/pexels-photo-189536.jpeg?auto=compress\u0026cs=tinysrgb\u0026dpr=2\u0026h=650\u0026w=940",
                "large": "https://images.pexels.com/photos/189536/pexels-photo-189536.jpeg?auto=compress\u0026cs=tinysrgb\u0026h=650\u0026w=940",
                "medium": "https://images.pexels.com/photos/189536/pexels-photo-189536.jpeg?auto=compress\u0026cs=tinysrgb\u0026h=350",
                "small": "https://images.pexels.com/photos/189536/pexels-photo-189536.jpeg?auto=compress\u0026cs=tinysrgb\u0026h=130",
                "portrait": "https://images.pexels.com/photos/189536/pexels-photo-189536.jpeg?auto=compress\u0026cs=tinysrgb\u0026fit=crop\u0026h=1200\u0026w=800",
                "landscape": "https://images.pexels.com/photos/189536/pexels-photo-189536.jpeg?auto=compress\u0026cs=tinysrgb\u0026fit=crop\u0026h=627\u0026w=1200",
                "tiny": "https://images.pexels.com/photos/189536/pexels-photo-189536.jpeg?auto=compress\u0026cs=tinysrgb\u0026dpr=1\u0026fit=crop\u0026h=200\u0026w=280"
            },
            "liked": false
        }
    ],
    "total_results": 4611,
    "next_page": "https://api.pexels.com/v1/search/?page=6\u0026per_page=12\u0026query=cookies",
    "prev_page": "https://api.pexels.com/v1/search/?page=4\u0026per_page=12\u0026query=cookies"
}