{
    "page": 4,
    "per_page": 12,
    "photos": [
        {
            "id": 5742704,
            "width": 4000,
            "height": 6000,
            "url": "https://www.pexels.com/photo/brown-cookies-and-drink-on-white-ceramic-plate-5742704/",
            "photographer": "olia danilevich",
            "photographer_url": "https://www.pexels.com/@olia-danilevich",
            "photographer_id": 2638647,
            "avg_color": "#A09B98",
            "src": {
                "original": "https://images.pexels.com/photos/5742704/pexels-photo-5742704.jpeg",
                "large2x": "https://images.pexels.com/photos/5742704/pexels-photo-5742704.jpeg?auto=compress\u0026cs=tinysrgb\u0026dpr=2\u0026h=650\u0026w=940",
                "large": "https://images.pexels.com/photos/5742704/pexels-photo-5742704.jpeg?auto=compress\u0026cs=tinysrgb\u0026h=650\u0026w=940",
                "medium": "https://images.pexels.com/photos/5742704/pexels-photo-5742704.jpeg?auto=compress\u0026cs=tinysrgb\u0026h=350",
                "small": "https://images.pexels.com/photos/5742704/pexels-photo-5742704.jpeg?auto=compress\u0026cs=tinysrgb\u0026h=130",
                "portrait": "https://images.pexels.com/photos/5742704/pexels-photo-5742704.jpeg?auto=compress\u0026cs=tinysrgb\u0026fit=crop\u0026h=1200\u0026w=800",
                "landscape": "https://images.pexels.com/photos/5742704/pexels-photo-5742704.jpeg?auto=compress\u0026cs=tinysrgb\u0026fit=crop\u0026h=627\u0026w=1200",
                "tiny": "https://images.pexels.com/photos/5742704/pexels-photo-5742704.jpeg?auto=compress\u0026cs=tinysrgb\u0026dpr=1\u0026fit=crop\u0026h=200\u0026w=280"
            },
            "liked": false
        },
        {
            "id": 4187550,
            "width": 2000,
            "height": 3000,
            "url": "https://www.pexels.com/photo/food-sugar-breakfast-milk-4187550/",
            "photographer": "Polina Tankilevitch",
            "photographer_url": "https://www.pexels.com/@polina-tankilevitch",
            "photographer_id": 2104565,
            "avg_color": "#ABA6A2",
            "src": {
                "original": "https://images.pexels.com/photos/4187550/pexels-photo-4187550.jpeg",
                "large2x": "https://images.pexels.com/photos/4187550/pexels-photo-4187550.jpeg?auto=compress\u0026cs=tinysrgb\u0026dpr=2\u0026h=650\u0026w=940",
                "large": "https://images.pexels.com/photos/4187550/pexels-photo-4187550.jpeg?auto=compress\u0026cs=tinysrgb\u0026h=650\u0026w=940",
                "medium": "https://images.pexels.com/photos/4187550/pexels-photo-4187550.jpeg?auto=compress\u0026cs=tinysrgb\u0026h=350",
                "small": "https://images.pexels.com/photos/4187550/pexels-photo-4187550.jpeg?auto=compress\u0026cs=tinysrgb\u0026h=130",
                "portrait": "https://images.pexels.com/photos/4187550/pexels-photo-4187550.jpeg?auto=compress\u0026cs=tinysrgb\u0026fit=crop\u0026h=1200\u0026w=800",
                "landscape": "https://images.pexels.com/photos/4187550/pexels-photo-4187550.jpeg?auto=compress\u0026cs=tinysrgb\u0026fit=crop\u0026h=627\u0026w=1200",
                "tiny": "https://images.pexels.com/photos/4187550/pexels-photo-4187550.jpeg?auto=compress\u0026cs=tinysrgb\u0026dpr=1\u0026fit=crop\u0026h=200\u0026w=280"
            },
            "liked": false
        },
        {
            "id": 4187552,
            "width": 2000,
            "height": 3000,
            "url": "https://www.pexels.com/photo/food-sugar-breakfast-milk-4187552/",
            "photographer": "Polina Tankilevitch",
            "photographer_url": "https://www.pexels.com/@polina-tankilevitch",
            "photographer_id": 2104565,
            "avg_color": "#ACAAA7",
            "src": {
                "original": "https://images.pexels.com/photos/4187552/pexels-photo-4187552.jpeg",
                "large2x": "https://images.pexels.com/photos/4187552/pexels-photo-4187552.jpeg?auto=compress\u0026cs=tinysrgb\u0026dpr=2\u0026h=650\u0026w=940",
                "large": "https://images.pexels.com/photos/4187552/pexels-photo-4187552.jpeg?auto=compress\u0026cs=tinysrgb\u0026h=650\u0026w=940",
                "medium": "https://images.pexels.com/photos/4187552/pexels-photo-4187552.jpeg?auto=compress\u0026cs=tinysrgb\u0026h=350",
                "small": "https://images.pexels.com/photos/4187552/pexels-photo-4187552.jpeg?auto=compress\u0026cs=tinysrgb\u0026h=130",
                "portrait": "https://images.pexels.com/photos/4187552/pexels-photo-4187552.jpeg?auto=compress\u0026cs=tinysrgb\u0026fit=crop\u0026h=1200\u0026w=800",
                "landscape": "https://images.pexels.com/photos/4187552/pexels-photo-4187552.jpeg?auto=compress\u0026cs=tinysrgb\u0026fit=crop\u0026h=627\u0026w=1200",
                "tiny": "https://images.pexels.com/photos/4187552/pexels-photo-4187552.jpeg?auto=compress\u0026cs=tinysrgb\u0026dpr=1\u0026fit=crop\u0026h=200\u0026w=280"
            },
            "liked": false
        },
        {
            "id": 5205172,
            "width": 3065,
            "height": 4607,
            "url": "https://www.pexels.com/photo/sweet-chocolate-cookies-with-milky-drink-5205172/",
            "photographer": "Disha Sheta",
            "photographer_url": "https://www.pexels.com/@disha-sheta-596631",
            "photographer_id": 596631,
            "avg_color": "#81634F",
            "src": {
                "original": "https://images.pexels.com/photos/5205172/pexels-photo-5205172.jpeg",
                "large2x": "https://images.pexels.com/photos/5205172/pexels-photo-5205172.jpeg?auto=compress\u0026cs=tinysrgb\u0026dpr=2\u0026h=650\u0026w=940",
                "large": "https://images.pexels.com/photos/5205172/pexels-photo-5205172.jpeg?auto=compress\u0026cs=tinysrgb\u0026h=650\u0026w=940",
                "medium": "https://images.pexels.com/photos/5205172/pexels-photo-5205172.jpeg?auto=compress\u0026cs=tinysrgb\u0026h=350",
                "small": "https://images.pexels.com/photos/5205172/pexels-photo-5205172.jpeg?auto=compress\u0026cs=tinysrgb\u0026h=130",
                "portrait": "https://images.pexels.com/photos/5205172/pexels-photo-5205172.jpeg?auto=compress\u0026cs=tinysrgb\u0026fit=crop\u0026h=1200\u0026w=800",
                "landscape": "https://images.pexels.com/photos/5205172/pexels-photo-5205172.jpeg?auto=compress\u0026cs=tinysrgb\u0026fit=crop\u0026h=627\u0026w=1200",
                "tiny": "https://images.pexels.com/photos/5205172/pexels-photo-5205172.jpeg?auto=compress\u0026cs=tinysrgb\u0026dpr=1\u0026fit=crop\u0026h=200\u0026w=280"
            },
            "liked": false
        },
        {
            "id": 5379540,
            "width": 4480,
            "height": 6720,
            "url": "https://www.pexels.com/photo/cookies-beside-a-glass-of-milk-5379540/",
            "photographer": "Meraki Photos",
            "photographer_url": "https://www.pexels.com/@meraki-photos-3596636",
            "photographer_id": 3596636,
            "avg_color": "#B9B1AF",
            "src": {
                "original": "https://images.pexels.com/photos/5379540/pexels-photo-5379540.jpeg",
                "large2x": "https://images.pexels.com/photos/5379540/pexels-photo-5379540.jpeg?auto=compress\u0026cs=tinysrgb\u0026dpr=2\u0026h=650\u0026w=940",
                "large": "https://images.pexels.com/photos/5379540/pexels-photo-5379540.jpeg?auto=compress\u0026cs=tinysrgb\u0026h=650\u0026w=940",
                "medium": "https://images.pexels.com/photos/5379540/pexels-photo-5379540.jpeg?auto=compress\u0026cs=tinysrgb\u0026h=350",
                "small": "https://images.pexels.com/photos/5379540/pexels-photo-5379540.jpeg?auto=compress\u0026cs=tinysrgb\u0026h=130",
                "portrait": "https://images.pexels.com/photos/5379540/pexels-photo-5379540.jpeg?auto=compress\u0026cs=tinysrgb\u0026fit=crop\u0026h=1200\u0026w=800",
                "landscape": "https://images.pexels.com/photos/5379540/pexels-photo-5379540.jpeg?auto=compress\u0026cs=tinysrgb\u0026fit=crop\u0026h=627\u0026w=1200",
                "tiny": "https://images.pexels.com/photos/5379540/pexels-photo-5379540.jpeg?auto=compress\u0026cs=tinysrgb\u0026dpr=1\u0026fit=crop\u0026h=200\u0026w=280"
            },
            "liked": false
        },
        {
            "id": 4276336,
            "width": 3856,
            "height": 5776,
            "url": "https://www.pexels.com/photo/photo-of-person-s-hand-dipping-cookie-on-glass-with-milk-4276336/",
            "photographer": "elif tekkaya",
            "photographer_url": "https://www.pexels.com/@eliftekkaya",
            "photographer_id": 2694669,
            "avg_color": "#C0BAB6",
            "src": {
                "original": "https://images.pexels.com/photos/4276336/pexels-photo-4276336.jpeg",
                "large2x": "https://images.pexels.com/photos/4276336/pexels-photo-4276336.jpeg?auto=compress\u0026cs=tinysrgb\u0026dpr=2\u0026h=650\u0026w=940",
                "large": "https://images.pexels.com/photos/4276336/pexels-photo-4276336.jpeg?auto=compress\u0026cs=tinysrgb\u0026h=650\u0026w=940",
                "medium": "https://images.pexels.com/photos/4276336/pexels-photo-4276336.jpeg?auto=compress\u0026cs=tinysrgb\u0026h=350",
                "small": "https://images.pexels.com/photos/4276336/pexels-photo-4276336.jpeg?auto=compress\u0026cs=tinysrgb\u0026h=130",
                "portrait": "https://images.pexels.com/photos/4276336/pexels-photo-4276336.jpeg?auto=compress\u0026cs=tinysrgb\u0026fit=crop\u0026h=1200\u0026w=800",
                "landscape": "https://images.pexels.com/photos/4276336/pexels-photo-4276336.jpeg?auto=compress\u0026cs=tinysrgb\u0026fit=crop\u0026h=627\u0026w=1200",
                "tiny": "https://images.pexels.com/photos/4276336/pexels-photo-4276336.jpeg?auto=compress\u0026cs=tinysrgb\u0026dpr=1\u0026fit=crop\u0026h=200\u0026w=280"
            },
            "liked": false
        },
        {
            "id": 5379495,
            "width": 6720,
            "height": 4480,
            "url": "https://www.pexels.com/photo/baked-cookies-and-a-book-on-white-surface-5379495/",
            "photographer": "Meraki Photos",
            "photographer_url": "https://www.pexels.com/@meraki-photos-3596636",
            "photographer_id": 3596636,
            "avg_color": "#B4A495",
            "src": {
                "original": "https://images.pexels.com/photos/5379495/pexels-photo-5379495.jpeg",
                "large2x": "https://images.pexels.com/photos/5379495/pexels-photo-5379495.jpeg?auto=compress\u0026cs=tinysrgb\u0026dpr=2\u0026h=650\u0026w=940",
                "large": "https://images.pexels.com/photos/5379495/pexels-photo-5379495.jpeg?auto=compress\u0026cs=tinysrgb\u0026h=650\u0026w=940",
                "medium": "https://images.pexels.com/photos/5379495/pexels-photo-5379495.jpeg?auto=compress\u0026cs=tinysrgb\u0026h=350",
                "small": "https://images.pexels.com/photos/5379495/pexels-photo-5379495.jpeg?auto=compress\u0026cs=tinysrgb\u0026h=130",
                "portrait": "https://images.pexels.com/photos/5379495/pexels-photo-5379495.jpeg?auto=compress\u0026cs=tinysrgb\u0026fit=crop\u0026h=1200\u0026w=800",
                "landscape": "https://images.pexels.com/photos/5379495/pexels-photo-5379495.jpeg?auto=compress\u0026cs=tinysrgb\u0026fit=crop\u0026h=627\u0026w=1200",
                "tiny": "https://images.pexels.com/photos/5379495/pexels-photo-5379495.jpeg?auto=compress\u0026cs=tinysrgb\u0026dpr=1\u0026fit=crop\u0026h=200\u0026w=280"
            },
            "liked": false
        },
        {
            "id": 5379577,
            "width": 4480,
            "height": 6720,
            "url": "https://www.pexels.com/photo/cookies-on-a-plate-and-a-glass-of-milk-5379577/",
            "photographer": "Meraki Photos",
            "photographer_url": "https://www.pexels.com/@meraki-photos-3596636",
            "photographer_id": 3596636,
            "avg_color": "#7C7369",
            "src": {
                "original": "https://images.pexels.com/photos/5379577/pexels-photo-5379577.jpeg",
                "large2x": "https://images.pexels.com/photos/5379577/pexels-photo-5379577.jpeg?auto=compress\u0026cs=tinysrgb\u0026dpr=2\u0026h=650\u0026w=940",
                "large": "https://images.pexels.com/photos/5379577/pexels-photo-5379577.jpeg?auto=compress\u0026cs=tinysrgb\u0026h=650\u0026w=940",
                "medium": "https://images.pexels.com/photos/5379577/pexels-photo-5379577.jpeg?auto=compress\u0026cs=tinysrgb\u0026h=350",
                "small": "https://images.pexels.com/photos/5379577/pexels-photo-5379577.jpeg?auto=compress\u0026cs=tinysrgb\u0026h=130",
                "portrait": "https://images.pexels.com/photos/5379577/pexels-photo-5379577.jpeg?auto=compress\u0026cs=tinysrgb\u0026fit=crop\u0026h=1200\u0026w=800",
                "landscape": "https://images.pexels.com/photos/5379577/pexels-photo-5379577.jpeg?auto=compress\u0026cs=tinysrgb\u0026fit=crop\u0026h=627\u0026w=1200",
                "tiny": "https://images.pexels.com/photos/5379577/pexels-photo-5379577.jpeg?auto=compress\u0026cs=tinysrgb\u0026dpr=1\u0026fit=crop\u0026h=200\u0026w=280"
            },
            "liked": false
        },
        {
            "id": 5379514,
            "width": 4480,
            "height": 6720,
            "url": "https://www.pexels.com/photo/cookies-on-plate-beside-a-glass-of-milk-5379514/",
            "photographer": "Meraki Photos",
            "photographer_url": "https://www.pexels.com/@meraki-photos-3596636",
            "photographer_id": 3596636,
            "avg_color": "#ACABAD",
            "src": {
                "original": "https://images.pexels.com/photos/5379514/pexels-photo-5379514.jpeg",
                "large2x": "https://images.pexels.com/photos/5379514/pexels-photo-5379514.jpeg?auto=compress\u0026cs=tinysrgb\u0026dpr=2\u0026h=650\u0026w=940",
                "large": "https://images.pexels.com/photos/5379514/pexels-photo-5379514.jpeg?auto=compress\u0026cs=tinysrgb\u0026h=650\u0026w=940",
                "medium": "https://images.pexels.com/photos/5379514/pexels-photo-5379514.jpeg?auto=compress\u0026cs=tinysrgb\u0026h=350",
                "small": "https://images.pexels.com/photos/5379514/pexels-photo-5379514.jpeg?auto=compress\u0026cs=tinysrgb\u0026h=130",
                "portrait": "https://images.pexels.com/photos/5379514/pexels-photo-5379514.jpeg?auto=compress\u0026cs=tinysrgb\u0026fit=crop\u0026h=1200\u0026w=800",
                "landscape": "https://images.pexels.com/photos/5379514/pexels-photo-5379514.jpeg?auto=compress\u0026cs=tinysrgb\u0026fit=crop\u0026h=627\u0026w=1200",
                "tiny": "https://images.pexels.com/photos/5379514/pexels-photo-5379514.jpeg?auto=compress\u0026cs=tinysrgb\u0026dpr=1\u0026fit=crop\u0026h=200\u0026w=280"
            },
            "liked": false
        },
        {
            "id": 5747715,
            "width": 4000,
            "height": 5176,
            "url": "https://www.pexels.com/photo/food-coffee-cup-dark-5747715/",
            "photographer": "M. Catalin Cardei",
            "photographer_url": "https://www.pexels.com/@m-catalin-cardei-2171554",
            "photographer_id": 2171554,
            "avg_color": "#7D767B",
            "src": {
                "original": "https://images.pexels.com/photos/5747715/pexels-photo-5747715.jpeg",
                "large2x": "https://images.pexels.com/photos/5747715/pexels-photo-5747715.jpeg?auto=compress\u0026cs=tinysrgb\u0026dpr=2\u0026h=650\u0026w=940",
                "large": "https://images.pexels.com/photos/5747715/pexels-photo-5747715.jpeg?auto=compress\u0026cs=tinysrgb\u0026h=650\u0026w=940",
                "medium": "https://images.pexels.com/photos/5747715/pexels-photo-5747715.jpeg?auto=compress\u0026cs=tinysrgb\u0026h=350",
                "small": "https://images.pexels.com/photos/5747715/pexels-photo-5747715.jpeg?auto=compress\u0026cs=tinysrgb\u0026h=130",
                "portrait": "https://images.pexels.com/photos/5747715/pexels-photo-5747715.jpeg?auto=compress\u0026cs=tinysrgb\u0026fit=crop\u0026h=1200\u0026w=800",
                "landscape": "https://images.pexels.com/photos/5747715/pexels-photo-5747715.jpeg?auto=compress\u0026cs=tinysrgb\u0026fit=crop\u0026h=627\u0026w=1200",
                "tiny": "https://images.pexels.com/photos/5747715/pexels-photo-5747715.jpeg?auto=compress\u0026cs=tinysrgb\u0026dpr=1\u0026fit=crop\u0026h=200\u0026w=280"
            },
            "liked": false
        },
        {
            "id": 5747717,
            "width": 4000,
            "height": 5176,
            "url": "https://www.pexels.com/photo/food-wood-dawn-caffeine-5747717/",
            "photographer": "M. Catalin Cardei",
            "photographer_url": "https://www.pexels.com/@m-catalin-cardei-2171554",
            "photographer_id": 2171554,
            "avg_color": "#6D686B",
            "src": {
                "original": "https://images.pexels.com/photos/5747717/pexels-photo-5747717.jpeg",
                "large2x": "https://images.pexels.com/photos/5747717/pexels-photo-5747717.jpeg?auto=compress\u0026cs=tinysrgb\u0026dpr=2\u0026h=650\u0026w=940",
                "large": "https://images.pexels.com/photos/5747717/pexels-photo-5747717.jpeg?auto=compress\u0026cs=tinysrgb\u0026h=650\u0026w=940",
                "medium": "https://images.pexels.com/photos/5747717/pexels-photo-5747717.jpeg?auto=compress\u0026cs=tinysrgb\u0026h=350",
                "small": "https://images.pexels.com/photos/5747717/pexels-photo-5747717.jpeg?auto=compress\u0026cs=tinysrgb\u0026h=130",
                "portrait": "https://images.pexels.com/photos/5747717/pexels-photo-5747717.jpeg?auto=compress\u0026cs=tinysrgb\u0026fit=crop\u0026h=1200\u0026w=800",
                "landscape": "https://images.pexels.com/photos/5747717/pexels-photo-5747717.jpeg?auto=compress\u0026cs=tinysrgb\u0026fit=crop\u0026h=627\u0026w=1200",
                "tiny": "https://images.pexels.com/photos/5747717/pexels-photo-5747717.jpeg?auto=compress\u0026cs=tinysrgb\u0026dpr=1\u0026fit=crop\u0026h=200\u0026w=280"
            },
            "liked": false
        },
        {
            "id": 4551361,
            "width": 3331,
            "height": 4457,
            "url": "https://www.pexels.com/photo/bread-food-dawn-cup-4551361/",
            "photographer": "Phạm Thành Đạt",
            "photographer_url": "https://www.pexels.com/@ph-m-thanh-d-t-1295528",
            "photographer_id": 1295528,
            "avg_color": "#D9D2C8",
            "src": {
                "original": "https://images.pexels.com/photos/4551361/pexels-photo-4551361.jpeg",
                "large2x": "https://images.pexels.com/photos/4551361/pexels-photo-4551361.jpeg?auto=compress\u0026cs=tinysrgb\u0026dpr=2\u0026h=650\u0026w=940",
                "large": "https://images.pexels.com/photos/4551361/pexels-photo-4551361.jpeg?auto=compress\u0026cs=tinysrgb\u0026h=650\u0026w=940",
                "medium": "https://images.pexels.com/photos/4551361/pexels-photo-4551361.jpeg?auto=compress\u0026cs=tinysrgb\u0026h=350",
                "small": "https://images.pexels.com/photos/4551361/pexels-photo-4551361.jpeg?auto=compress\u0026cs=tinysrgb\u0026h=130",
                "portrait": "https://images.pexels.com/photos/4551361/pexels-photo-4551361.jpeg?auto=compress\u0026cs=tinysrgb\u0026fit=crop\u0026h=1200\u0026w=800",
                "landscape": "https://images.pexels.com/photos/4551361/pexels-photo-4551361.jpeg?auto=compress\u0026cs=tinysrgb\u0026fit=crop\u0026h=627\u0026w=1200",
                "tiny": "https://images.pexels.com/photos/4551361/pexels-photo-4551361.jpeg?auto=compress\u0026cs=tinysrgb\u0026dpr=1\u0026fit=crop\u0026h=200\u0026w=280"
            },
            "liked": false
        }
    ],
    "total_results": 4611,
    "next_page": "https://api.pexels.com/v1/search/?page=5\u0026per_page=12\u0026query=cookies",
    "prev_page": "https://api.pexels.com/v1/search/?page=3\u0026per_page=12\u0026query=cookies"
}